        -:    0:Source:jsarray.c
        -:    0:Graph:jsarray.gcno
        -:    0:Data:jsarray.gcda
        -:    0:Runs:1
        -:    0:Programs:1
        -:    1:/*EOF*/
        -:    2:/*EOF*/
        -:    3:/*EOF*/
        -:    4:/*EOF*/
        -:    5:/*EOF*/
        -:    6:/*EOF*/
        -:    7:/*EOF*/
        -:    8:/*EOF*/
        -:    9:/*EOF*/
        -:   10:/*EOF*/
        -:   11:/*EOF*/
        -:   12:/*EOF*/
        -:   13:/*EOF*/
        -:   14:/*EOF*/
        -:   15:/*EOF*/
        -:   16:/*EOF*/
        -:   17:/*EOF*/
        -:   18:/*EOF*/
        -:   19:/*EOF*/
        -:   20:/*EOF*/
        -:   21:/*EOF*/
        -:   22:/*EOF*/
        -:   23:/*EOF*/
        -:   24:/*EOF*/
        -:   25:/*EOF*/
        -:   26:/*EOF*/
        -:   27:/*EOF*/
        -:   28:/*EOF*/
        -:   29:/*EOF*/
        -:   30:/*EOF*/
        -:   31:/*EOF*/
        -:   32:/*EOF*/
        -:   33:/*EOF*/
        -:   34:/*EOF*/
        -:   35:/*EOF*/
        -:   36:/*EOF*/
        -:   37:/*EOF*/
        -:   38:/*EOF*/
        -:   39:/*EOF*/
        -:   40:/*EOF*/
        -:   41:/*EOF*/
        -:   42:/*EOF*/
        -:   43:/*EOF*/
        -:   44:/*EOF*/
        -:   45:/*EOF*/
        -:   46:/*EOF*/
        -:   47:/*EOF*/
        -:   48:/*EOF*/
        -:   49:/*EOF*/
        -:   50:/*EOF*/
        -:   51:/*EOF*/
        -:   52:/*EOF*/
        -:   53:/*EOF*/
        -:   54:/*EOF*/
        -:   55:/*EOF*/
        -:   56:/*EOF*/
        -:   57:/*EOF*/
        -:   58:/*EOF*/
        -:   59:/*EOF*/
        -:   60:/*EOF*/
        -:   61:/*EOF*/
        -:   62:/*EOF*/
        -:   63:/*EOF*/
        -:   64:/*EOF*/
        -:   65:/*EOF*/
        -:   66:/*EOF*/
        -:   67:/*EOF*/
        -:   68:/*EOF*/
        -:   69:/*EOF*/
        -:   70:/*EOF*/
        -:   71:/*EOF*/
        -:   72:/*EOF*/
        -:   73:/*EOF*/
        -:   74:/*EOF*/
        -:   75:/*EOF*/
        -:   76:/*EOF*/
        -:   77:/*EOF*/
        -:   78:/*EOF*/
        -:   79:/*EOF*/
        -:   80:/*EOF*/
        -:   81:/*EOF*/
        -:   82:/*EOF*/
        -:   83:/*EOF*/
function js_IdIsIndex called 382 returned 100% blocks executed 30%
      382:   84:/*EOF*/
        -:   85:/*EOF*/
        -:   86:/*EOF*/
        -:   87:/*EOF*/
        -:   88:/*EOF*/
      382:   89:/*EOF*/
branch  0 taken 89% (fallthrough)
branch  1 taken 11%
branch  2 taken 100% (fallthrough)
branch  3 taken 0%
        -:   90:/*EOF*/
      340:   91:/*EOF*/
      340:   92:/*EOF*/
branch  0 taken 0% (fallthrough)
branch  1 taken 100%
    #####:   93:/*EOF*/
      340:   94:/*EOF*/
      340:   95:/*EOF*/
        -:   96:/*EOF*/
        -:   97:/*EOF*/
        -:   98:/*EOF*/
       42:   99:/*EOF*/
branch  0 taken 0% (fallthrough)
branch  1 taken 100%
    #####:  100:/*EOF*/
        -:  101:/*EOF*/
       42:  102:/*EOF*/
       42:  103:/*EOF*/
branch  0 taken 0% (fallthrough)
branch  1 taken 100%
branch  2 never executed
branch  3 never executed
call    4 never executed
branch  5 never executed
branch  6 never executed
       42:  104:/*EOF*/
branch  0 taken 100% (fallthrough)
branch  1 taken 0%
call    2 returned 100%
branch  3 taken 0% (fallthrough)
branch  4 taken 100%
branch  5 never executed
branch  6 never executed
branch  7 never executed
branch  8 never executed
branch  9 never executed
branch 10 never executed
    #####:  105:/*EOF*/
    #####:  106:/*EOF*/
    #####:  107:/*EOF*/
    #####:  108:/*EOF*/
branch  0 never executed
branch  1 never executed
    #####:  109:/*EOF*/
branch  0 never executed
branch  1 never executed
call    2 never executed
branch  3 never executed
branch  4 never executed
    #####:  110:/*EOF*/
    #####:  111:/*EOF*/
    #####:  112:/*EOF*/
    #####:  113:/*EOF*/
        -:  114:/*EOF*/
        -:  115:/*EOF*/
        -:  116:/*EOF*/
        -:  117:/*EOF*/
    #####:  118:/*EOF*/
branch  0 never executed
branch  1 never executed
branch  2 never executed
branch  3 never executed
branch  4 never executed
branch  5 never executed
branch  6 never executed
branch  7 never executed
        -:  119:/*EOF*/
        -:  120:/*EOF*/
        -:  121:/*EOF*/
    #####:  122:/*EOF*/
    #####:  123:/*EOF*/
        -:  124:/*EOF*/
        -:  125:/*EOF*/
       42:  126:/*EOF*/
        -:  127:/*EOF*/
        -:  128:/*EOF*/
        -:  129:/*EOF*/
function ValueIsLength called 361 returned 100% blocks executed 23%
      361:  130:/*EOF*/
        -:  131:/*EOF*/
        -:  132:/*EOF*/
        -:  133:/*EOF*/
        -:  134:/*EOF*/
      361:  135:/*EOF*/
branch  0 taken 100% (fallthrough)
branch  1 taken 0%
branch  2 taken 100% (fallthrough)
branch  3 taken 0%
      361:  136:/*EOF*/
      361:  137:/*EOF*/
branch  0 taken 0% (fallthrough)
branch  1 taken 100%
    #####:  138:/*EOF*/
call    0 never executed
        -:  139:/*EOF*/
    #####:  140:/*EOF*/
        -:  141:/*EOF*/
      361:  142:/*EOF*/
      361:  143:/*EOF*/
        -:  144:/*EOF*/
        -:  145:/*EOF*/
    #####:  146:/*EOF*/
call    0 never executed
branch  1 never executed
branch  2 never executed
    #####:  147:/*EOF*/
call    0 never executed
        -:  148:/*EOF*/
    #####:  149:/*EOF*/
        -:  150:/*EOF*/
    #####:  151:/*EOF*/
call    0 never executed
branch  1 never executed
branch  2 never executed
    #####:  152:/*EOF*/
call    0 never executed
        -:  153:/*EOF*/
    #####:  154:/*EOF*/
        -:  155:/*EOF*/
    #####:  156:/*EOF*/
branch  0 never executed
branch  1 never executed
branch  2 never executed
branch  3 never executed
branch  4 never executed
branch  5 never executed
branch  6 never executed
branch  7 never executed
    #####:  157:/*EOF*/
call    0 never executed
        -:  158:/*EOF*/
    #####:  159:/*EOF*/
        -:  160:/*EOF*/
    #####:  161:/*EOF*/
        -:  162:/*EOF*/
        -:  163:/*EOF*/
        -:  164:/*EOF*/
function js_GetLengthProperty called 729 returned 100% blocks executed 67%
      729:  165:/*EOF*/
        -:  166:/*EOF*/
        -:  167:/*EOF*/
        -:  168:/*EOF*/
        -:  169:/*EOF*/
        -:  170:/*EOF*/
        -:  171:/*EOF*/
      729:  172:/*EOF*/
branch  0 taken 0% (fallthrough)
branch  1 taken 100%
call    2 never executed
      729:  173:/*EOF*/
      729:  174:/*EOF*/
call    0 returned 100%
      729:  175:/*EOF*/
branch  0 taken 100% (fallthrough)
branch  1 taken 0%
        -:  176:/*EOF*/
        -:  177:/*EOF*/
        -:  178:/*EOF*/
        -:  179:/*EOF*/
     1458:  180:/*EOF*/
branch  0 taken 100% (fallthrough)
branch  1 taken 0%
branch  2 taken 100% (fallthrough)
branch  3 taken 0%
      729:  181:/*EOF*/
      729:  182:/*EOF*/
        -:  183:/*EOF*/
    #####:  184:/*EOF*/
call    0 never executed
        -:  185:/*EOF*/
        -:  186:/*EOF*/
      729:  187:/*EOF*/
branch  0 taken 0% (fallthrough)
branch  1 taken 100%
call    2 never executed
      729:  188:/*EOF*/
        -:  189:/*EOF*/
        -:  190:/*EOF*/
        -:  191:/*EOF*/
function IndexToValue called 768 returned 100% blocks executed 60%
      768:  192:/*EOF*/
        -:  193:/*EOF*/
      768:  194:/*EOF*/
branch  0 taken 100% (fallthrough)
branch  1 taken 0%
      768:  195:/*EOF*/
      768:  196:/*EOF*/
        -:  197:/*EOF*/
    #####:  198:/*EOF*/
call    0 never executed
        -:  199:/*EOF*/
        -:  200:/*EOF*/
        -:  201:/*EOF*/
function IndexToId called 29 returned 100% blocks executed 36%
       29:  202:/*EOF*/
        -:  203:/*EOF*/
        -:  204:/*EOF*/
        -:  205:/*EOF*/
        -:  206:/*EOF*/
       29:  207:/*EOF*/
branch  0 taken 100% (fallthrough)
branch  1 taken 0%
       29:  208:/*EOF*/
        -:  209:/*EOF*/
    #####:  210:/*EOF*/
call    0 never executed
    #####:  211:/*EOF*/
branch  0 never executed
branch  1 never executed
    #####:  212:/*EOF*/
    #####:  213:/*EOF*/
call    0 never executed
    #####:  214:/*EOF*/
branch  0 never executed
branch  1 never executed
    #####:  215:/*EOF*/
    #####:  216:/*EOF*/
        -:  217:/*EOF*/
        -:  218:/*EOF*/
       29:  219:/*EOF*/
        -:  220:/*EOF*/
        -:  221:/*EOF*/
        -:  222:/*EOF*/
function PropertyExists called 4 returned 100% blocks executed 75%
        4:  223:/*EOF*/
        -:  224:/*EOF*/
        -:  225:/*EOF*/
        -:  226:/*EOF*/
        -:  227:/*EOF*/
        4:  228:/*EOF*/
call    0 returned 100%
branch  1 taken 0% (fallthrough)
branch  2 taken 100%
    #####:  229:/*EOF*/
        -:  230:/*EOF*/
        4:  231:/*EOF*/
        4:  232:/*EOF*/
branch  0 taken 100% (fallthrough)
branch  1 taken 0%
        4:  233:/*EOF*/
branch  0 taken 0% (fallthrough)
branch  1 taken 100%
call    2 never executed
        -:  234:/*EOF*/
        -:  235:/*EOF*/
        4:  236:/*EOF*/
        -:  237:/*EOF*/
        -:  238:/*EOF*/
        -:  239:/*EOF*/
        -:  240:/*EOF*/
        -:  241:/*EOF*/
function IndexToExistingId called 4 returned 100% blocks executed 70%
        4:  242:/*EOF*/
        -:  243:/*EOF*/
        -:  244:/*EOF*/
        -:  245:/*EOF*/
        4:  246:/*EOF*/
call    0 returned 100%
branch  1 taken 0% (fallthrough)
branch  2 taken 100%
    #####:  247:/*EOF*/
        4:  248:/*EOF*/
call    0 returned 100%
branch  1 taken 0% (fallthrough)
branch  2 taken 100%
    #####:  249:/*EOF*/
        4:  250:/*EOF*/
branch  0 taken 0% (fallthrough)
branch  1 taken 100%
    #####:  251:/*EOF*/
        4:  252:/*EOF*/
        -:  253:/*EOF*/
        -:  254:/*EOF*/
        -:  255:/*EOF*/
function js_SetLengthProperty called 361 returned 100% blocks executed 83%
      361:  256:/*EOF*/
        -:  257:/*EOF*/
        -:  258:/*EOF*/
        -:  259:/*EOF*/
        -:  260:/*EOF*/
      361:  261:/*EOF*/
call    0 returned 100%
branch  1 taken 0% (fallthrough)
branch  2 taken 100%
    #####:  262:/*EOF*/
      361:  263:/*EOF*/
      361:  264:/*EOF*/
call    0 returned 100%
        -:  265:/*EOF*/
        -:  266:/*EOF*/
        -:  267:/*EOF*/
function js_HasLengthProperty called 0 returned 0% blocks executed 0%
    #####:  268:/*EOF*/
        -:  269:/*EOF*/
        -:  270:/*EOF*/
        -:  271:/*EOF*/
        -:  272:/*EOF*/
        -:  273:/*EOF*/
        -:  274:/*EOF*/
    #####:  275:/*EOF*/
call    0 never executed
    #####:  276:/*EOF*/
branch  0 never executed
branch  1 never executed
call    2 never executed
    #####:  277:/*EOF*/
    #####:  278:/*EOF*/
call    0 never executed
    #####:  279:/*EOF*/
call    0 never executed
    #####:  280:/*EOF*/
branch  0 never executed
branch  1 never executed
    #####:  281:/*EOF*/
call    0 never executed
    #####:  282:/*EOF*/
branch  0 never executed
branch  1 never executed
call    2 never executed
    #####:  283:/*EOF*/
        -:  284:/*EOF*/
        -:  285:/*EOF*/
        -:  286:/*EOF*/
        -:  287:/*EOF*/
        -:  288:/*EOF*/
        -:  289:/*EOF*/
        -:  290:/*EOF*/
        -:  291:/*EOF*/
function array_length_getter called 729 returned 100% blocks executed 75%
      729:  292:/*EOF*/
        -:  293:/*EOF*/
      729:  294:/*EOF*/
branch  0 taken 0% (fallthrough)
branch  1 taken 100%
call    2 never executed
call    3 returned 100%
        -:  295:/*EOF*/
        -:  296:/*EOF*/
        -:  297:/*EOF*/
function array_length_setter called 361 returned 100% blocks executed 53%
      361:  298:/*EOF*/
        -:  299:/*EOF*/
        -:  300:/*EOF*/
        -:  301:/*EOF*/
        -:  302:/*EOF*/
        -:  303:/*EOF*/
      361:  304:/*EOF*/
call    0 returned 100%
branch  1 taken 0% (fallthrough)
branch  2 taken 100%
    #####:  305:/*EOF*/
      361:  306:/*EOF*/
call    0 returned 100%
branch  1 taken 0% (fallthrough)
branch  2 taken 100%
    #####:  307:/*EOF*/
      361:  308:/*EOF*/
      722:  309:/*EOF*/
branch  0 taken 0%
branch  1 taken 100% (fallthrough)
    #####:  310:/*EOF*/
    #####:  311:/*EOF*/
call    0 never executed
branch  1 never executed
branch  2 never executed
    #####:  312:/*EOF*/
    #####:  313:/*EOF*/
call    0 never executed
branch  1 never executed
branch  2 never executed
    #####:  314:/*EOF*/
        -:  315:/*EOF*/
      361:  316:/*EOF*/
call    0 returned 100%
        -:  317:/*EOF*/
        -:  318:/*EOF*/
        -:  319:/*EOF*/
function array_addProperty called 382 returned 100% blocks executed 91%
      382:  320:/*EOF*/
        -:  321:/*EOF*/
        -:  322:/*EOF*/
        -:  323:/*EOF*/
      382:  324:/*EOF*/
call    0 returned 100%
branch  1 taken 11% (fallthrough)
branch  2 taken 89%
       42:  325:/*EOF*/
      340:  326:/*EOF*/
call    0 returned 100%
branch  1 taken 0% (fallthrough)
branch  2 taken 100%
    #####:  327:/*EOF*/
      340:  328:/*EOF*/
branch  0 taken 99% (fallthrough)
branch  1 taken 1%
      336:  329:/*EOF*/
      336:  330:/*EOF*/
call    0 returned 100%
        -:  331:/*EOF*/
        4:  332:/*EOF*/
        -:  333:/*EOF*/
        -:  334:/*EOF*/
        -:  335:/*EOF*/
function array_convert called 0 returned 0% blocks executed 0%
    #####:  336:/*EOF*/
        -:  337:/*EOF*/
        -:  338:/*EOF*/
        -:  339:/*EOF*/
    #####:  340:/*EOF*/
branch  0 never executed
branch  1 never executed
    #####:  341:/*EOF*/
call    0 never executed
branch  1 never executed
branch  2 never executed
    #####:  342:/*EOF*/
    #####:  343:/*EOF*/
branch  0 never executed
branch  1 never executed
branch  2 never executed
        -:  344:/*EOF*/
    #####:  345:/*EOF*/
call    0 never executed
        -:  346:/*EOF*/
    #####:  347:/*EOF*/
branch  0 never executed
branch  1 never executed
    #####:  348:/*EOF*/
        -:  349:/*EOF*/
    #####:  350:/*EOF*/
        -:  351:/*EOF*/
        -:  352:/*EOF*/
    #####:  353:/*EOF*/
call    0 never executed
        -:  354:/*EOF*/
        -:  355:/*EOF*/
        -:  356:/*EOF*/
        -:  357:/*EOF*/
        -:  358:/*EOF*/
        -:  359:/*EOF*/
        -:  360:/*EOF*/
        -:  361:/*EOF*/
        -:  362:/*EOF*/
        -:  363:/*EOF*/
        -:  364:/*EOF*/
function array_join_sub called 2 returned 100% blocks executed 41%
        2:  365:/*EOF*/
        -:  366:/*EOF*/
        -:  367:/*EOF*/
        -:  368:/*EOF*/
        -:  369:/*EOF*/
        -:  370:/*EOF*/
        -:  371:/*EOF*/
        -:  372:/*EOF*/
        -:  373:/*EOF*/
        -:  374:/*EOF*/
        -:  375:/*EOF*/
        -:  376:/*EOF*/
        -:  377:/*EOF*/
        -:  378:/*EOF*/
        2:  379:/*EOF*/
branch  0 taken 0% (fallthrough)
branch  1 taken 100%
    #####:  380:/*EOF*/
call    0 never executed
    #####:  381:/*EOF*/
        -:  382:/*EOF*/
        -:  383:/*EOF*/
        2:  384:/*EOF*/
call    0 returned 100%
        2:  385:/*EOF*/
branch  0 taken 0% (fallthrough)
branch  1 taken 100%
    #####:  386:/*EOF*/
        -:  387:/*EOF*/
        2:  388:/*EOF*/
call    0 returned 100%
        2:  389:/*EOF*/
branch  0 taken 0% (fallthrough)
branch  1 taken 100%
    #####:  390:/*EOF*/
        2:  391:/*EOF*/
branch  0 taken 100% (fallthrough)
branch  1 taken 0%
        2:  392:/*EOF*/
branch  0 taken 0% (fallthrough)
branch  1 taken 100%
        -:  393:/*EOF*/
    #####:  394:/*EOF*/
call    0 never executed
        -:  395:/*EOF*/
        -:  396:/*EOF*/
        -:  397:/*EOF*/
        -:  398:/*EOF*/
        -:  399:/*EOF*/
        -:  400:/*EOF*/
    #####:  401:/*EOF*/
        -:  402:/*EOF*/
        -:  403:/*EOF*/
        -:  404:/*EOF*/
        -:  405:/*EOF*/
        -:  406:/*EOF*/
        -:  407:/*EOF*/
        2:  408:/*EOF*/
        2:  409:/*EOF*/
branch  0 taken 100% (fallthrough)
branch  1 taken 0%
        2:  410:/*EOF*/
        2:  411:/*EOF*/
        2:  412:/*EOF*/
branch  0 taken 0% (fallthrough)
branch  1 taken 100%
    #####:  413:/*EOF*/
        -:  414:/*EOF*/
    #####:  415:/*EOF*/
    #####:  416:/*EOF*/
call    0 never executed
    #####:  417:/*EOF*/
    #####:  418:/*EOF*/
    #####:  419:/*EOF*/
branch  0 never executed
branch  1 never executed
    #####:  420:/*EOF*/
    #####:  421:/*EOF*/
        -:  422:/*EOF*/
        -:  423:/*EOF*/
        2:  424:/*EOF*/
        -:  425:/*EOF*/
        -:  426:/*EOF*/
        -:  427:/*EOF*/
        -:  428:/*EOF*/
        -:  429:/*EOF*/
        -:  430:/*EOF*/
        -:  431:/*EOF*/
    #####:  432:/*EOF*/
branch  0 never executed
branch  1 never executed
    #####:  433:/*EOF*/
call    0 never executed
    #####:  434:/*EOF*/
    #####:  435:/*EOF*/
        -:  436:/*EOF*/
        -:  437:/*EOF*/
    #####:  438:/*EOF*/
branch  0 never executed
branch  1 never executed
branch  2 never executed
branch  3 never executed
    #####:  439:/*EOF*/
call    0 never executed
    #####:  440:/*EOF*/
call    0 never executed
    #####:  441:/*EOF*/
        -:  442:/*EOF*/
        -:  443:/*EOF*/
        -:  444:/*EOF*/
    #####:  445:/*EOF*/
        -:  446:/*EOF*/
        2:  447:/*EOF*/
        2:  448:/*EOF*/
branch  0 taken 0% (fallthrough)
branch  1 taken 100%
branch  2 never executed
branch  3 never executed
        -:  449:/*EOF*/
        -:  450:/*EOF*/
        -:  451:/*EOF*/
        -:  452:/*EOF*/
        2:  453:/*EOF*/
       10:  454:/*EOF*/
branch  0 taken 80%
branch  1 taken 20% (fallthrough)
        8:  455:/*EOF*/
call    0 returned 100%
        8:  456:/*EOF*/
branch  0 taken 0% (fallthrough)
branch  1 taken 100%
    #####:  457:/*EOF*/
        -:  458:/*EOF*/
        8:  459:/*EOF*/
branch  0 taken 100% (fallthrough)
branch  1 taken 0%
branch  2 taken 0% (fallthrough)
branch  3 taken 100%
branch  4 never executed
branch  5 never executed
branch  6 never executed
branch  7 never executed
    #####:  460:/*EOF*/
    #####:  461:/*EOF*/
        -:  462:/*EOF*/
        8:  463:/*EOF*/
branch  0 taken 0% (fallthrough)
branch  1 taken 100%
    #####:  464:/*EOF*/
    #####:  465:/*EOF*/
branch  0 never executed
branch  1 never executed
call    2 never executed
    #####:  466:/*EOF*/
call    0 never executed
branch  1 never executed
branch  2 never executed
branch  3 never executed
branch  4 never executed
    #####:  467:/*EOF*/
call    0 never executed
    #####:  468:/*EOF*/
branch  0 never executed
branch  1 never executed
call    2 never executed
    #####:  469:/*EOF*/
branch  0 never executed
branch  1 never executed
    #####:  470:/*EOF*/
    #####:  471:/*EOF*/
call    0 never executed
        -:  472:/*EOF*/
        8:  473:/*EOF*/
branch  0 taken 100% (fallthrough)
branch  1 taken 0%
call    2 returned 100%
        -:  474:/*EOF*/
        8:  475:/*EOF*/
branch  0 taken 0% (fallthrough)
branch  1 taken 100%
    #####:  476:/*EOF*/
    #####:  477:/*EOF*/
        -:  478:/*EOF*/
        -:  479:/*EOF*/
        -:  480:/*EOF*/
        -:  481:/*EOF*/
        8:  482:/*EOF*/
branch  0 taken 0% (fallthrough)
branch  1 taken 100%
branch  2 never executed
branch  3 never executed
        8:  483:/*EOF*/
branch  0 taken 75% (fallthrough)
branch  1 taken 25%
       16:  484:/*EOF*/
branch  0 taken 100% (fallthrough)
branch  1 taken 0%
branch  2 taken 100% (fallthrough)
branch  3 taken 0%
branch  4 taken 0% (fallthrough)
branch  5 taken 100%
        8:  485:/*EOF*/
    #####:  486:/*EOF*/
branch  0 never executed
branch  1 never executed
    #####:  487:/*EOF*/
    #####:  488:/*EOF*/
        -:  489:/*EOF*/
    #####:  490:/*EOF*/
call    0 never executed
    #####:  491:/*EOF*/
        -:  492:/*EOF*/
        8:  493:/*EOF*/
        8:  494:/*EOF*/
branch  0 taken 0% (fallthrough)
branch  1 taken 100%
    #####:  495:/*EOF*/
    #####:  496:/*EOF*/
branch  0 never executed
branch  1 never executed
    #####:  497:/*EOF*/
        -:  498:/*EOF*/
        8:  499:/*EOF*/
        8:  500:/*EOF*/
branch  0 taken 0% (fallthrough)
branch  1 taken 100%
    #####:  501:/*EOF*/
    #####:  502:/*EOF*/
        -:  503:/*EOF*/
        -:  504:/*EOF*/
        -:  505:/*EOF*/
        8:  506:/*EOF*/
branch  0 taken 75% (fallthrough)
branch  1 taken 25%
        6:  507:/*EOF*/
        6:  508:/*EOF*/
        -:  509:/*EOF*/
        8:  510:/*EOF*/
branch  0 taken 0% (fallthrough)
branch  1 taken 100%
branch  2 never executed
branch  3 never executed
call    4 never executed
branch  5 never executed
branch  6 never executed
        -:  511:/*EOF*/
        8:  512:/*EOF*/
branch  0 taken 0% (fallthrough)
branch  1 taken 100%
branch  2 never executed
branch  3 never executed
call    4 never executed
branch  5 never executed
branch  6 never executed
        8:  513:/*EOF*/
        -:  514:/*EOF*/
        -:  515:/*EOF*/
        -:  516:/*EOF*/
        2:  517:/*EOF*/
branch  0 taken 100% (fallthrough)
branch  1 taken 0%
        2:  518:/*EOF*/
branch  0 taken 100% (fallthrough)
branch  1 taken 0%
        2:  519:/*EOF*/
branch  0 taken 50% (fallthrough)
branch  1 taken 50%
        1:  520:/*EOF*/
        1:  521:/*EOF*/
        -:  522:/*EOF*/
        2:  523:/*EOF*/
        -:  524:/*EOF*/
        -:  525:/*EOF*/
    #####:  526:/*EOF*/
        -:  527:/*EOF*/
        2:  528:/*EOF*/
call    0 returned 100%
        2:  529:/*EOF*/
branch  0 taken 0% (fallthrough)
branch  1 taken 100%
    #####:  530:/*EOF*/
branch  0 never executed
branch  1 never executed
    #####:  531:/*EOF*/
    #####:  532:/*EOF*/
        -:  533:/*EOF*/
        -:  534:/*EOF*/
        -:  535:/*EOF*/
        -:  536:/*EOF*/
        -:  537:/*EOF*/
        2:  538:/*EOF*/
branch  0 taken 0% (fallthrough)
branch  1 taken 100%
    #####:  539:/*EOF*/
call    0 never executed
    #####:  540:/*EOF*/
        -:  541:/*EOF*/
        2:  542:/*EOF*/
        2:  543:/*EOF*/
call    0 returned 100%
        2:  544:/*EOF*/
branch  0 taken 0% (fallthrough)
branch  1 taken 100%
    #####:  545:/*EOF*/
    #####:  546:/*EOF*/
        -:  547:/*EOF*/
        2:  548:/*EOF*/
        2:  549:/*EOF*/
        -:  550:/*EOF*/
        -:  551:/*EOF*/
        -:  552:/*EOF*/
        -:  553:/*EOF*/
        -:  554:/*EOF*/
        -:  555:/*EOF*/
        -:  556:/*EOF*/
        -:  557:/*EOF*/
        -:  558:/*EOF*/
function array_toSource called 2 returned 100% blocks executed 100%
        2:  559:/*EOF*/
        -:  560:/*EOF*/
        -:  561:/*EOF*/
        2:  562:/*EOF*/
call    0 returned 100%
        -:  563:/*EOF*/
        -:  564:/*EOF*/
        -:  565:/*EOF*/
        -:  566:/*EOF*/
function array_toString called 0 returned 0% blocks executed 0%
    #####:  567:/*EOF*/
        -:  568:/*EOF*/
        -:  569:/*EOF*/
        -:  570:/*EOF*/
        -:  571:/*EOF*/
        -:  572:/*EOF*/
        -:  573:/*EOF*/
        -:  574:/*EOF*/
        -:  575:/*EOF*/
    #####:  576:/*EOF*/
    #####:  577:/*EOF*/
branch  0 never executed
branch  1 never executed
call    2 never executed
        -:  578:/*EOF*/
        -:  579:/*EOF*/
        -:  580:/*EOF*/
        -:  581:/*EOF*/
function array_toLocaleString called 0 returned 0% blocks executed 0%
    #####:  582:/*EOF*/
        -:  583:/*EOF*/
        -:  584:/*EOF*/
        -:  585:/*EOF*/
        -:  586:/*EOF*/
        -:  587:/*EOF*/
        -:  588:/*EOF*/
    #####:  589:/*EOF*/
call    0 never executed
        -:  590:/*EOF*/
        -:  591:/*EOF*/
        -:  592:/*EOF*/
function InitArrayElements called 0 returned 0% blocks executed 0%
    #####:  593:/*EOF*/
        -:  594:/*EOF*/
        -:  595:/*EOF*/
        -:  596:/*EOF*/
        -:  597:/*EOF*/
    #####:  598:/*EOF*/
branch  0 never executed
branch  1 never executed
    #####:  599:/*EOF*/
branch  0 never executed
branch  1 never executed
call    2 never executed
        -:  600:/*EOF*/
    #####:  601:/*EOF*/
call    0 never executed
branch  1 never executed
branch  2 never executed
    #####:  602:/*EOF*/
    #####:  603:/*EOF*/
call    0 never executed
branch  1 never executed
branch  2 never executed
    #####:  604:/*EOF*/
        -:  605:/*EOF*/
    #####:  606:/*EOF*/
        -:  607:/*EOF*/
        -:  608:/*EOF*/
        -:  609:/*EOF*/
function InitArrayObject called 21 returned 100% blocks executed 64%
       21:  610:/*EOF*/
        -:  611:/*EOF*/
        -:  612:/*EOF*/
        -:  613:/*EOF*/
        -:  614:/*EOF*/
       21:  615:/*EOF*/
call    0 returned 100%
branch  1 taken 0% (fallthrough)
branch  2 taken 100%
    #####:  616:/*EOF*/
       21:  617:/*EOF*/
       21:  618:/*EOF*/
call    0 returned 100%
branch  1 taken 0% (fallthrough)
branch  2 taken 100%
        -:  619:/*EOF*/
        -:  620:/*EOF*/
        -:  621:/*EOF*/
    #####:  622:/*EOF*/
        -:  623:/*EOF*/
       21:  624:/*EOF*/
branch  0 taken 100% (fallthrough)
branch  1 taken 0%
       21:  625:/*EOF*/
    #####:  626:/*EOF*/
call    0 never executed
        -:  627:/*EOF*/
        -:  628:/*EOF*/
        -:  629:/*EOF*/
        -:  630:/*EOF*/
        -:  631:/*EOF*/
        -:  632:/*EOF*/
        -:  633:/*EOF*/
function array_join called 0 returned 0% blocks executed 0%
    #####:  634:/*EOF*/
        -:  635:/*EOF*/
        -:  636:/*EOF*/
        -:  637:/*EOF*/
    #####:  638:/*EOF*/
branch  0 never executed
branch  1 never executed
    #####:  639:/*EOF*/
call    0 never executed
    #####:  640:/*EOF*/
call    0 never executed
    #####:  641:/*EOF*/
branch  0 never executed
branch  1 never executed
    #####:  642:/*EOF*/
    #####:  643:/*EOF*/
    #####:  644:/*EOF*/
call    0 never executed
        -:  645:/*EOF*/
        -:  646:/*EOF*/
        -:  647:/*EOF*/
function array_reverse called 0 returned 0% blocks executed 0%
    #####:  648:/*EOF*/
        -:  649:/*EOF*/
        -:  650:/*EOF*/
        -:  651:/*EOF*/
        -:  652:/*EOF*/
        -:  653:/*EOF*/
        -:  654:/*EOF*/
        -:  655:/*EOF*/
    #####:  656:/*EOF*/
call    0 never executed
branch  1 never executed
branch  2 never executed
    #####:  657:/*EOF*/
        -:  658:/*EOF*/
        -:  659:/*EOF*/
        -:  660:/*EOF*/
        -:  661:/*EOF*/
        -:  662:/*EOF*/
        -:  663:/*EOF*/
        -:  664:/*EOF*/
        -:  665:/*EOF*/
        -:  666:/*EOF*/
    #####:  667:/*EOF*/
branch  0 never executed
branch  1 never executed
    #####:  668:/*EOF*/
        -:  669:/*EOF*/
        -:  670:/*EOF*/
        -:  671:/*EOF*/
        -:  672:/*EOF*/
        -:  673:/*EOF*/
    #####:  674:/*EOF*/
    #####:  675:/*EOF*/
    #####:  676:/*EOF*/
    #####:  677:/*EOF*/
branch  0 never executed
branch  1 never executed
        -:  678:/*EOF*/
        -:  679:/*EOF*/
        -:  680:/*EOF*/
        -:  681:/*EOF*/
    #####:  682:/*EOF*/
call    0 never executed
branch  1 never executed
branch  2 never executed
    #####:  683:/*EOF*/
    #####:  684:/*EOF*/
call    0 never executed
branch  1 never executed
branch  2 never executed
    #####:  685:/*EOF*/
    #####:  686:/*EOF*/
branch  0 never executed
branch  1 never executed
call    2 never executed
branch  3 never executed
branch  4 never executed
    #####:  687:/*EOF*/
        -:  688:/*EOF*/
    #####:  689:/*EOF*/
call    0 never executed
branch  1 never executed
branch  2 never executed
    #####:  690:/*EOF*/
    #####:  691:/*EOF*/
call    0 never executed
branch  1 never executed
branch  2 never executed
    #####:  692:/*EOF*/
    #####:  693:/*EOF*/
branch  0 never executed
branch  1 never executed
call    2 never executed
branch  3 never executed
branch  4 never executed
    #####:  694:/*EOF*/
        -:  695:/*EOF*/
        -:  696:/*EOF*/
    #####:  697:/*EOF*/
branch  0 never executed
branch  1 never executed
    #####:  698:/*EOF*/
call    0 never executed
branch  1 never executed
branch  2 never executed
    #####:  699:/*EOF*/
        -:  700:/*EOF*/
    #####:  701:/*EOF*/
call    0 never executed
branch  1 never executed
branch  2 never executed
    #####:  702:/*EOF*/
        -:  703:/*EOF*/
    #####:  704:/*EOF*/
branch  0 never executed
branch  1 never executed
    #####:  705:/*EOF*/
call    0 never executed
branch  1 never executed
branch  2 never executed
    #####:  706:/*EOF*/
        -:  707:/*EOF*/
    #####:  708:/*EOF*/
call    0 never executed
branch  1 never executed
branch  2 never executed
    #####:  709:/*EOF*/
        -:  710:/*EOF*/
        -:  711:/*EOF*/
    #####:  712:/*EOF*/
        -:  713:/*EOF*/
        -:  714:/*EOF*/
    #####:  715:/*EOF*/
branch  0 never executed
branch  1 never executed
    #####:  716:/*EOF*/
    #####:  717:/*EOF*/
    #####:  718:/*EOF*/
        -:  719:/*EOF*/
        -:  720:/*EOF*/
    #####:  721:/*EOF*/
    #####:  722:/*EOF*/
        -:  723:/*EOF*/
        -:  724:/*EOF*/
        -:  725:/*EOF*/
        -:  726:/*EOF*/
        -:  727:/*EOF*/
        -:  728:/*EOF*/
        -:  729:/*EOF*/
        -:  730:/*EOF*/
        -:  731:/*EOF*/
        -:  732:/*EOF*/
        -:  733:/*EOF*/
        -:  734:/*EOF*/
        -:  735:/*EOF*/
        -:  736:/*EOF*/
        -:  737:/*EOF*/
        -:  738:/*EOF*/
        -:  739:/*EOF*/
        -:  740:/*EOF*/
function HeapSortHelper called 0 returned 0% blocks executed 0%
    #####:  741:/*EOF*/
        -:  742:/*EOF*/
        -:  743:/*EOF*/
        -:  744:/*EOF*/
        -:  745:/*EOF*/
        -:  746:/*EOF*/
        -:  747:/*EOF*/
        -:  748:/*EOF*/
    #####:  749:/*EOF*/
    #####:  750:/*EOF*/
    #####:  751:/*EOF*/
    #####:  752:/*EOF*/
    #####:  753:/*EOF*/
    #####:  754:/*EOF*/
        -:  755:/*EOF*/
    #####:  756:/*EOF*/
        -:  757:/*EOF*/
        -:  758:/*EOF*/
        -:  759:/*EOF*/
    #####:  760:/*EOF*/
branch  0 never executed
branch  1 never executed
    #####:  761:/*EOF*/
    #####:  762:/*EOF*/
    #####:  763:/*EOF*/
branch  0 never executed
branch  1 never executed
call    2 never executed
branch  3 never executed
branch  4 never executed
    #####:  764:/*EOF*/
    #####:  765:/*EOF*/
    #####:  766:/*EOF*/
        -:  767:/*EOF*/
        -:  768:/*EOF*/
        -:  769:/*EOF*/
        -:  770:/*EOF*/
        -:  771:/*EOF*/
        -:  772:/*EOF*/
    #####:  773:/*EOF*/
branch  0 never executed
branch  1 never executed
branch  2 never executed
branch  3 never executed
call    4 never executed
branch  5 never executed
branch  6 never executed
    #####:  774:/*EOF*/
        -:  775:/*EOF*/
    #####:  776:/*EOF*/
branch  0 never executed
branch  1 never executed
    #####:  777:/*EOF*/
branch  0 never executed
branch  1 never executed
    #####:  778:/*EOF*/
        -:  779:/*EOF*/
    #####:  780:/*EOF*/
    #####:  781:/*EOF*/
branch  0 never executed
branch  1 never executed
        -:  782:/*EOF*/
        -:  783:/*EOF*/
    #####:  784:/*EOF*/
    #####:  785:/*EOF*/
branch  0 never executed
branch  1 never executed
    #####:  786:/*EOF*/
    #####:  787:/*EOF*/
    #####:  788:/*EOF*/
    #####:  789:/*EOF*/
branch  0 never executed
branch  1 never executed
call    2 never executed
branch  3 never executed
branch  4 never executed
    #####:  790:/*EOF*/
    #####:  791:/*EOF*/
    #####:  792:/*EOF*/
call    0 never executed
branch  1 never executed
branch  2 never executed
    #####:  793:/*EOF*/
        -:  794:/*EOF*/
    #####:  795:/*EOF*/
    #####:  796:/*EOF*/
branch  0 never executed
branch  1 never executed
    #####:  797:/*EOF*/
        -:  798:/*EOF*/
        -:  799:/*EOF*/
    #####:  800:/*EOF*/
    #####:  801:/*EOF*/
branch  0 never executed
branch  1 never executed
        -:  802:/*EOF*/
        -:  803:/*EOF*/
        -:  804:/*EOF*/
        -:  805:/*EOF*/
function js_HeapSort called 0 returned 0% blocks executed 0%
    #####:  806:/*EOF*/
        -:  807:/*EOF*/
        -:  808:/*EOF*/
        -:  809:/*EOF*/
        -:  810:/*EOF*/
        -:  811:/*EOF*/
    #####:  812:/*EOF*/
    #####:  813:/*EOF*/
    #####:  814:/*EOF*/
    #####:  815:/*EOF*/
    #####:  816:/*EOF*/
    #####:  817:/*EOF*/
branch  0 never executed
branch  1 never executed
branch  2 never executed
branch  3 never executed
        -:  818:/*EOF*/
    #####:  819:/*EOF*/
branch  0 never executed
branch  1 never executed
    #####:  820:/*EOF*/
call    0 never executed
    #####:  821:/*EOF*/
branch  0 never executed
branch  1 never executed
    #####:  822:/*EOF*/
call    0 never executed
    #####:  823:/*EOF*/
        -:  824:/*EOF*/
        -:  825:/*EOF*/
        -:  826:/*EOF*/
        -:  827:/*EOF*/
        -:  828:/*EOF*/
        -:  829:/*EOF*/
        -:  830:/*EOF*/
        -:  831:/*EOF*/
        -:  832:/*EOF*/
function sort_compare called 0 returned 0% blocks executed 0%
    #####:  833:/*EOF*/
        -:  834:/*EOF*/
    #####:  835:/*EOF*/
    #####:  836:/*EOF*/
    #####:  837:/*EOF*/
    #####:  838:/*EOF*/
        -:  839:/*EOF*/
        -:  840:/*EOF*/
        -:  841:/*EOF*/
    #####:  842:/*EOF*/
        -:  843:/*EOF*/
        -:  844:/*EOF*/
        -:  845:/*EOF*/
        -:  846:/*EOF*/
        -:  847:/*EOF*/
    #####:  848:/*EOF*/
branch  0 never executed
branch  1 never executed
branch  2 never executed
branch  3 never executed
    #####:  849:/*EOF*/
    #####:  850:/*EOF*/
branch  0 never executed
branch  1 never executed
branch  2 never executed
branch  3 never executed
    #####:  851:/*EOF*/
        -:  852:/*EOF*/
    #####:  853:/*EOF*/
        -:  854:/*EOF*/
    #####:  855:/*EOF*/
branch  0 never executed
branch  1 never executed
    #####:  856:/*EOF*/
branch  0 never executed
branch  1 never executed
    #####:  857:/*EOF*/
    #####:  858:/*EOF*/
branch  0 never executed
branch  1 never executed
    #####:  859:/*EOF*/
        -:  860:/*EOF*/
    #####:  861:/*EOF*/
    #####:  862:/*EOF*/
branch  0 never executed
branch  1 never executed
        -:  863:/*EOF*/
        -:  864:/*EOF*/
    #####:  865:/*EOF*/
branch  0 never executed
branch  1 never executed
    #####:  866:/*EOF*/
        -:  867:/*EOF*/
        -:  868:/*EOF*/
        -:  869:/*EOF*/
        -:  870:/*EOF*/
        -:  871:/*EOF*/
        -:  872:/*EOF*/
        -:  873:/*EOF*/
        -:  874:/*EOF*/
    #####:  875:/*EOF*/
call    0 never executed
    #####:  876:/*EOF*/
    #####:  877:/*EOF*/
branch  0 never executed
branch  1 never executed
call    2 never executed
branch  3 never executed
branch  4 never executed
    #####:  878:/*EOF*/
call    0 never executed
        -:  879:/*EOF*/
    #####:  880:/*EOF*/
        -:  881:/*EOF*/
        -:  882:/*EOF*/
    #####:  883:/*EOF*/
    #####:  884:/*EOF*/
    #####:  885:/*EOF*/
branch  0 never executed
branch  1 never executed
call    2 never executed
call    3 never executed
        -:  886:/*EOF*/
        -:  887:/*EOF*/
    #####:  888:/*EOF*/
branch  0 never executed
branch  1 never executed
    #####:  889:/*EOF*/
call    0 never executed
        -:  890:/*EOF*/
        -:  891:/*EOF*/
    #####:  892:/*EOF*/
branch  0 never executed
branch  1 never executed
    #####:  893:/*EOF*/
branch  0 never executed
branch  1 never executed
branch  2 never executed
branch  3 never executed
branch  4 never executed
branch  5 never executed
        -:  894:/*EOF*/
        -:  895:/*EOF*/
        -:  896:/*EOF*/
        -:  897:/*EOF*/
        -:  898:/*EOF*/
        -:  899:/*EOF*/
    #####:  900:/*EOF*/
    #####:  901:/*EOF*/
branch  0 never executed
branch  1 never executed
    #####:  902:/*EOF*/
branch  0 never executed
branch  1 never executed
        -:  903:/*EOF*/
        -:  904:/*EOF*/
        -:  905:/*EOF*/
    #####:  906:/*EOF*/
branch  0 never executed
branch  1 never executed
    #####:  907:/*EOF*/
        -:  908:/*EOF*/
    #####:  909:/*EOF*/
        -:  910:/*EOF*/
        -:  911:/*EOF*/
        -:  912:/*EOF*/
function sort_compare_strings called 0 returned 0% blocks executed 0%
    #####:  913:/*EOF*/
        -:  914:/*EOF*/
    #####:  915:/*EOF*/
        -:  916:/*EOF*/
    #####:  917:/*EOF*/
call    0 never executed
        -:  918:/*EOF*/
        -:  919:/*EOF*/
        -:  920:/*EOF*/
function array_sort called 0 returned 0% blocks executed 0%
    #####:  921:/*EOF*/
        -:  922:/*EOF*/
        -:  923:/*EOF*/
        -:  924:/*EOF*/
        -:  925:/*EOF*/
        -:  926:/*EOF*/
        -:  927:/*EOF*/
        -:  928:/*EOF*/
        -:  929:/*EOF*/
        -:  930:/*EOF*/
        -:  931:/*EOF*/
        -:  932:/*EOF*/
        -:  933:/*EOF*/
        -:  934:/*EOF*/
        -:  935:/*EOF*/
    #####:  936:/*EOF*/
branch  0 never executed
branch  1 never executed
    #####:  937:/*EOF*/
branch  0 never executed
branch  1 never executed
branch  2 never executed
branch  3 never executed
    #####:  938:/*EOF*/
call    0 never executed
        -:  939:/*EOF*/
    #####:  940:/*EOF*/
        -:  941:/*EOF*/
    #####:  942:/*EOF*/
    #####:  943:/*EOF*/
        -:  944:/*EOF*/
    #####:  945:/*EOF*/
    #####:  946:/*EOF*/
        -:  947:/*EOF*/
        -:  948:/*EOF*/
    #####:  949:/*EOF*/
call    0 never executed
branch  1 never executed
branch  2 never executed
    #####:  950:/*EOF*/
    #####:  951:/*EOF*/
branch  0 never executed
branch  1 never executed
    #####:  952:/*EOF*/
    #####:  953:/*EOF*/
        -:  954:/*EOF*/
        -:  955:/*EOF*/
        -:  956:/*EOF*/
        -:  957:/*EOF*/
        -:  958:/*EOF*/
        -:  959:/*EOF*/
        -:  960:/*EOF*/
    #####:  961:/*EOF*/
        -:  962:/*EOF*/
        -:  963:/*EOF*/
        -:  964:/*EOF*/
    #####:  965:/*EOF*/
        -:  966:/*EOF*/
    #####:  967:/*EOF*/
call    0 never executed
    #####:  968:/*EOF*/
branch  0 never executed
branch  1 never executed
    #####:  969:/*EOF*/
        -:  970:/*EOF*/
        -:  971:/*EOF*/
    #####:  972:/*EOF*/
    #####:  973:/*EOF*/
    #####:  974:/*EOF*/
    #####:  975:/*EOF*/
        -:  976:/*EOF*/
    #####:  977:/*EOF*/
    #####:  978:/*EOF*/
branch  0 never executed
branch  1 never executed
    #####:  979:/*EOF*/
call    0 never executed
    #####:  980:/*EOF*/
branch  0 never executed
branch  1 never executed
    #####:  981:/*EOF*/
        -:  982:/*EOF*/
    #####:  983:/*EOF*/
branch  0 never executed
branch  1 never executed
    #####:  984:/*EOF*/
    #####:  985:/*EOF*/
    #####:  986:/*EOF*/
        -:  987:/*EOF*/
    #####:  988:/*EOF*/
        -:  989:/*EOF*/
    #####:  990:/*EOF*/
call    0 never executed
    #####:  991:/*EOF*/
branch  0 never executed
branch  1 never executed
    #####:  992:/*EOF*/
        -:  993:/*EOF*/
        -:  994:/*EOF*/
    #####:  995:/*EOF*/
        -:  996:/*EOF*/
        -:  997:/*EOF*/
    #####:  998:/*EOF*/
    #####:  999:/*EOF*/
    #####: 1000:/*EOF*/
    #####: 1001:/*EOF*/
    #####: 1002:/*EOF*/
    #####: 1003:/*EOF*/
branch  0 never executed
branch  1 never executed
call    2 never executed
        -: 1004:/*EOF*/
        -: 1005:/*EOF*/
        -: 1006:/*EOF*/
    #####: 1007:/*EOF*/
branch  0 never executed
branch  1 never executed
    #####: 1008:/*EOF*/
call    0 never executed
    #####: 1009:/*EOF*/
branch  0 never executed
branch  1 never executed
    #####: 1010:/*EOF*/
        -: 1011:/*EOF*/
        -: 1012:/*EOF*/
    #####: 1013:/*EOF*/
branch  0 never executed
branch  1 never executed
        -: 1014:/*EOF*/
        -: 1015:/*EOF*/
    #####: 1016:/*EOF*/
call    0 never executed
branch  1 never executed
branch  2 never executed
    #####: 1017:/*EOF*/
    #####: 1018:/*EOF*/
call    0 never executed
branch  1 never executed
branch  2 never executed
    #####: 1019:/*EOF*/
        -: 1020:/*EOF*/
        -: 1021:/*EOF*/
        -: 1022:/*EOF*/
        -: 1023:/*EOF*/
    #####: 1024:/*EOF*/
branch  0 never executed
branch  1 never executed
    #####: 1025:/*EOF*/
call    0 never executed
    #####: 1026:/*EOF*/
        -: 1027:/*EOF*/
        -: 1028:/*EOF*/
        -: 1029:/*EOF*/
        -: 1030:/*EOF*/
        -: 1031:/*EOF*/
        -: 1032:/*EOF*/
        -: 1033:/*EOF*/
        -: 1034:/*EOF*/
function array_push called 25 returned 100% blocks executed 65%
       25: 1035:/*EOF*/
        -: 1036:/*EOF*/
        -: 1037:/*EOF*/
        -: 1038:/*EOF*/
        -: 1039:/*EOF*/
        -: 1040:/*EOF*/
       25: 1041:/*EOF*/
call    0 returned 100%
branch  1 taken 0% (fallthrough)
branch  2 taken 100%
    #####: 1042:/*EOF*/
       50: 1043:/*EOF*/
branch  0 taken 50%
branch  1 taken 50% (fallthrough)
       25: 1044:/*EOF*/
call    0 returned 100%
branch  1 taken 0% (fallthrough)
branch  2 taken 100%
    #####: 1045:/*EOF*/
       25: 1046:/*EOF*/
call    0 returned 100%
branch  1 taken 0% (fallthrough)
branch  2 taken 100%
    #####: 1047:/*EOF*/
        -: 1048:/*EOF*/
        -: 1049:/*EOF*/
        -: 1050:/*EOF*/
        -: 1051:/*EOF*/
        -: 1052:/*EOF*/
        -: 1053:/*EOF*/
       25: 1054:/*EOF*/
       25: 1055:/*EOF*/
branch  0 taken 0% (fallthrough)
branch  1 taken 100%
    #####: 1056:/*EOF*/
branch  0 never executed
branch  1 never executed
        -: 1057:/*EOF*/
       25: 1058:/*EOF*/
call    0 returned 100%
branch  1 taken 0% (fallthrough)
branch  2 taken 100%
    #####: 1059:/*EOF*/
        -: 1060:/*EOF*/
       25: 1061:/*EOF*/
call    0 returned 100%
        -: 1062:/*EOF*/
        -: 1063:/*EOF*/
        -: 1064:/*EOF*/
function array_pop called 0 returned 0% blocks executed 0%
    #####: 1065:/*EOF*/
        -: 1066:/*EOF*/
        -: 1067:/*EOF*/
        -: 1068:/*EOF*/
        -: 1069:/*EOF*/
        -: 1070:/*EOF*/
        -: 1071:/*EOF*/
    #####: 1072:/*EOF*/
call    0 never executed
branch  1 never executed
branch  2 never executed
    #####: 1073:/*EOF*/
    #####: 1074:/*EOF*/
branch  0 never executed
branch  1 never executed
    #####: 1075:/*EOF*/
        -: 1076:/*EOF*/
        -: 1077:/*EOF*/
    #####: 1078:/*EOF*/
call    0 never executed
branch  1 never executed
branch  2 never executed
    #####: 1079:/*EOF*/
        -: 1080:/*EOF*/
        -: 1081:/*EOF*/
    #####: 1082:/*EOF*/
branch  0 never executed
branch  1 never executed
    #####: 1083:/*EOF*/
    #####: 1084:/*EOF*/
call    0 never executed
branch  1 never executed
branch  2 never executed
branch  3 never executed
branch  4 never executed
    #####: 1085:/*EOF*/
call    0 never executed
    #####: 1086:/*EOF*/
branch  0 never executed
branch  1 never executed
    #####: 1087:/*EOF*/
    #####: 1088:/*EOF*/
branch  0 never executed
branch  1 never executed
    #####: 1089:/*EOF*/
        -: 1090:/*EOF*/
    #####: 1091:/*EOF*/
call    0 never executed
        -: 1092:/*EOF*/
        -: 1093:/*EOF*/
        -: 1094:/*EOF*/
function array_shift called 0 returned 0% blocks executed 0%
    #####: 1095:/*EOF*/
        -: 1096:/*EOF*/
        -: 1097:/*EOF*/
        -: 1098:/*EOF*/
        -: 1099:/*EOF*/
        -: 1100:/*EOF*/
    #####: 1101:/*EOF*/
call    0 never executed
branch  1 never executed
branch  2 never executed
    #####: 1102:/*EOF*/
    #####: 1103:/*EOF*/
branch  0 never executed
branch  1 never executed
    #####: 1104:/*EOF*/
    #####: 1105:/*EOF*/
        -: 1106:/*EOF*/
        -: 1107:/*EOF*/
    #####: 1108:/*EOF*/
call    0 never executed
branch  1 never executed
branch  2 never executed
    #####: 1109:/*EOF*/
        -: 1110:/*EOF*/
        -: 1111:/*EOF*/
        -: 1112:/*EOF*/
        -: 1113:/*EOF*/
    #####: 1114:/*EOF*/
branch  0 never executed
branch  1 never executed
    #####: 1115:/*EOF*/
branch  0 never executed
branch  1 never executed
    #####: 1116:/*EOF*/
call    0 never executed
branch  1 never executed
branch  2 never executed
    #####: 1117:/*EOF*/
    #####: 1118:/*EOF*/
call    0 never executed
branch  1 never executed
branch  2 never executed
    #####: 1119:/*EOF*/
        -: 1120:/*EOF*/
        -: 1121:/*EOF*/
    #####: 1122:/*EOF*/
call    0 never executed
branch  1 never executed
branch  2 never executed
    #####: 1123:/*EOF*/
    #####: 1124:/*EOF*/
call    0 never executed
branch  1 never executed
branch  2 never executed
    #####: 1125:/*EOF*/
        -: 1126:/*EOF*/
        -: 1127:/*EOF*/
        -: 1128:/*EOF*/
        -: 1129:/*EOF*/
        -: 1130:/*EOF*/
        -: 1131:/*EOF*/
        -: 1132:/*EOF*/
    #####: 1133:/*EOF*/
branch  0 never executed
branch  1 never executed
call    2 never executed
branch  3 never executed
branch  4 never executed
    #####: 1134:/*EOF*/
    #####: 1135:/*EOF*/
call    0 never executed
branch  1 never executed
branch  2 never executed
    #####: 1136:/*EOF*/
        -: 1137:/*EOF*/
    #####: 1138:/*EOF*/
call    0 never executed
        -: 1139:/*EOF*/
        -: 1140:/*EOF*/
        -: 1141:/*EOF*/
function array_unshift called 0 returned 0% blocks executed 0%
    #####: 1142:/*EOF*/
        -: 1143:/*EOF*/
        -: 1144:/*EOF*/
        -: 1145:/*EOF*/
        -: 1146:/*EOF*/
        -: 1147:/*EOF*/
        -: 1148:/*EOF*/
        -: 1149:/*EOF*/
    #####: 1150:/*EOF*/
call    0 never executed
branch  1 never executed
branch  2 never executed
    #####: 1151:/*EOF*/
    #####: 1152:/*EOF*/
branch  0 never executed
branch  1 never executed
        -: 1153:/*EOF*/
    #####: 1154:/*EOF*/
branch  0 never executed
branch  1 never executed
    #####: 1155:/*EOF*/
    #####: 1156:/*EOF*/
    #####: 1157:/*EOF*/
branch  0 never executed
branch  1 never executed
    #####: 1158:/*EOF*/
call    0 never executed
branch  1 never executed
branch  2 never executed
    #####: 1159:/*EOF*/
    #####: 1160:/*EOF*/
branch  0 never executed
branch  1 never executed
    #####: 1161:/*EOF*/
call    0 never executed
branch  1 never executed
branch  2 never executed
    #####: 1162:/*EOF*/
        -: 1163:/*EOF*/
        -: 1164:/*EOF*/
        -: 1165:/*EOF*/
    #####: 1166:/*EOF*/
call    0 never executed
branch  1 never executed
branch  2 never executed
    #####: 1167:/*EOF*/
    #####: 1168:/*EOF*/
branch  0 never executed
branch  1 never executed
    #####: 1169:/*EOF*/
call    0 never executed
branch  1 never executed
branch  2 never executed
    #####: 1170:/*EOF*/
        -: 1171:/*EOF*/
    #####: 1172:/*EOF*/
call    0 never executed
branch  1 never executed
branch  2 never executed
    #####: 1173:/*EOF*/
        -: 1174:/*EOF*/
        -: 1175:/*EOF*/
        -: 1176:/*EOF*/
        -: 1177:/*EOF*/
        -: 1178:/*EOF*/
    #####: 1179:/*EOF*/
branch  0 never executed
branch  1 never executed
    #####: 1180:/*EOF*/
call    0 never executed
branch  1 never executed
branch  2 never executed
    #####: 1181:/*EOF*/
    #####: 1182:/*EOF*/
call    0 never executed
branch  1 never executed
branch  2 never executed
    #####: 1183:/*EOF*/
        -: 1184:/*EOF*/
        -: 1185:/*EOF*/
        -: 1186:/*EOF*/
    #####: 1187:/*EOF*/
    #####: 1188:/*EOF*/
call    0 never executed
branch  1 never executed
branch  2 never executed
    #####: 1189:/*EOF*/
        -: 1190:/*EOF*/
    #####: 1191:/*EOF*/
call    0 never executed
        -: 1192:/*EOF*/
        -: 1193:/*EOF*/
        -: 1194:/*EOF*/
function array_splice called 0 returned 0% blocks executed 0%
    #####: 1195:/*EOF*/
        -: 1196:/*EOF*/
        -: 1197:/*EOF*/
        -: 1198:/*EOF*/
        -: 1199:/*EOF*/
        -: 1200:/*EOF*/
        -: 1201:/*EOF*/
        -: 1202:/*EOF*/
        -: 1203:/*EOF*/
        -: 1204:/*EOF*/
        -: 1205:/*EOF*/
        -: 1206:/*EOF*/
        -: 1207:/*EOF*/
    #####: 1208:/*EOF*/
branch  0 never executed
branch  1 never executed
    #####: 1209:/*EOF*/
    #####: 1210:/*EOF*/
    #####: 1211:/*EOF*/
call    0 never executed
branch  1 never executed
branch  2 never executed
    #####: 1212:/*EOF*/
        -: 1213:/*EOF*/
        -: 1214:/*EOF*/
    #####: 1215:/*EOF*/
call    0 never executed
branch  1 never executed
branch  2 never executed
    #####: 1216:/*EOF*/
    #####: 1217:/*EOF*/
call    0 never executed
    #####: 1218:/*EOF*/
branch  0 never executed
branch  1 never executed
    #####: 1219:/*EOF*/
    #####: 1220:/*EOF*/
branch  0 never executed
branch  1 never executed
    #####: 1221:/*EOF*/
    #####: 1222:/*EOF*/
branch  0 never executed
branch  1 never executed
    #####: 1223:/*EOF*/
        -: 1224:/*EOF*/
    #####: 1225:/*EOF*/
    #####: 1226:/*EOF*/
    #####: 1227:/*EOF*/
        -: 1228:/*EOF*/
        -: 1229:/*EOF*/
    #####: 1230:/*EOF*/
    #####: 1231:/*EOF*/
branch  0 never executed
branch  1 never executed
    #####: 1232:/*EOF*/
    #####: 1233:/*EOF*/
        -: 1234:/*EOF*/
    #####: 1235:/*EOF*/
call    0 never executed
branch  1 never executed
branch  2 never executed
    #####: 1236:/*EOF*/
    #####: 1237:/*EOF*/
call    0 never executed
    #####: 1238:/*EOF*/
branch  0 never executed
branch  1 never executed
    #####: 1239:/*EOF*/
    #####: 1240:/*EOF*/
branch  0 never executed
branch  1 never executed
    #####: 1241:/*EOF*/
    #####: 1242:/*EOF*/
    #####: 1243:/*EOF*/
    #####: 1244:/*EOF*/
    #####: 1245:/*EOF*/
        -: 1246:/*EOF*/
        -: 1247:/*EOF*/
    #####: 1248:/*EOF*/
branch  0 never executed
branch  1 never executed
branch  2 never executed
branch  3 never executed
        -: 1249:/*EOF*/
        -: 1250:/*EOF*/
        -: 1251:/*EOF*/
        -: 1252:/*EOF*/
        -: 1253:/*EOF*/
        -: 1254:/*EOF*/
        -: 1255:/*EOF*/
        -: 1256:/*EOF*/
        -: 1257:/*EOF*/
        -: 1258:/*EOF*/
        -: 1259:/*EOF*/
    #####: 1260:/*EOF*/
call    0 never executed
branch  1 never executed
branch  2 never executed
    #####: 1261:/*EOF*/
    #####: 1262:/*EOF*/
call    0 never executed
branch  1 never executed
branch  2 never executed
    #####: 1263:/*EOF*/
        -: 1264:/*EOF*/
    #####: 1265:/*EOF*/
branch  0 never executed
branch  1 never executed
branch  2 never executed
branch  3 never executed
        -: 1266:/*EOF*/
        -: 1267:/*EOF*/
        -: 1268:/*EOF*/
        -: 1269:/*EOF*/
        -: 1270:/*EOF*/
        -: 1271:/*EOF*/
    #####: 1272:/*EOF*/
call    0 never executed
    #####: 1273:/*EOF*/
branch  0 never executed
branch  1 never executed
    #####: 1274:/*EOF*/
    #####: 1275:/*EOF*/
        -: 1276:/*EOF*/
        -: 1277:/*EOF*/
    #####: 1278:/*EOF*/
branch  0 never executed
branch  1 never executed
    #####: 1279:/*EOF*/
branch  0 never executed
branch  1 never executed
    #####: 1280:/*EOF*/
call    0 never executed
branch  1 never executed
branch  2 never executed
    #####: 1281:/*EOF*/
    #####: 1282:/*EOF*/
branch  0 never executed
branch  1 never executed
    #####: 1283:/*EOF*/
    #####: 1284:/*EOF*/
call    0 never executed
branch  1 never executed
branch  2 never executed
    #####: 1285:/*EOF*/
        -: 1286:/*EOF*/
        -: 1287:/*EOF*/
    #####: 1288:/*EOF*/
call    0 never executed
branch  1 never executed
branch  2 never executed
    #####: 1289:/*EOF*/
    #####: 1290:/*EOF*/
call    0 never executed
branch  1 never executed
branch  2 never executed
    #####: 1291:/*EOF*/
        -: 1292:/*EOF*/
        -: 1293:/*EOF*/
    #####: 1294:/*EOF*/
call    0 never executed
branch  1 never executed
branch  2 never executed
    #####: 1295:/*EOF*/
        -: 1296:/*EOF*/
        -: 1297:/*EOF*/
        -: 1298:/*EOF*/
        -: 1299:/*EOF*/
        -: 1300:/*EOF*/
    #####: 1301:/*EOF*/
branch  0 never executed
branch  1 never executed
    #####: 1302:/*EOF*/
    #####: 1303:/*EOF*/
        -: 1304:/*EOF*/
    #####: 1305:/*EOF*/
branch  0 never executed
branch  1 never executed
    #####: 1306:/*EOF*/
call    0 never executed
branch  1 never executed
branch  2 never executed
    #####: 1307:/*EOF*/
    #####: 1308:/*EOF*/
branch  0 never executed
branch  1 never executed
    #####: 1309:/*EOF*/
call    0 never executed
branch  1 never executed
branch  2 never executed
    #####: 1310:/*EOF*/
        -: 1311:/*EOF*/
        -: 1312:/*EOF*/
        -: 1313:/*EOF*/
    #####: 1314:/*EOF*/
call    0 never executed
branch  1 never executed
branch  2 never executed
    #####: 1315:/*EOF*/
    #####: 1316:/*EOF*/
branch  0 never executed
branch  1 never executed
    #####: 1317:/*EOF*/
call    0 never executed
branch  1 never executed
branch  2 never executed
    #####: 1318:/*EOF*/
        -: 1319:/*EOF*/
    #####: 1320:/*EOF*/
call    0 never executed
branch  1 never executed
branch  2 never executed
    #####: 1321:/*EOF*/
        -: 1322:/*EOF*/
        -: 1323:/*EOF*/
    #####: 1324:/*EOF*/
    #####: 1325:/*EOF*/
branch  0 never executed
branch  1 never executed
    #####: 1326:/*EOF*/
    #####: 1327:/*EOF*/
branch  0 never executed
branch  1 never executed
    #####: 1328:/*EOF*/
call    0 never executed
branch  1 never executed
branch  2 never executed
    #####: 1329:/*EOF*/
    #####: 1330:/*EOF*/
branch  0 never executed
branch  1 never executed
    #####: 1331:/*EOF*/
call    0 never executed
branch  1 never executed
branch  2 never executed
    #####: 1332:/*EOF*/
        -: 1333:/*EOF*/
        -: 1334:/*EOF*/
        -: 1335:/*EOF*/
    #####: 1336:/*EOF*/
call    0 never executed
branch  1 never executed
branch  2 never executed
    #####: 1337:/*EOF*/
    #####: 1338:/*EOF*/
branch  0 never executed
branch  1 never executed
    #####: 1339:/*EOF*/
call    0 never executed
branch  1 never executed
branch  2 never executed
    #####: 1340:/*EOF*/
        -: 1341:/*EOF*/
    #####: 1342:/*EOF*/
call    0 never executed
branch  1 never executed
branch  2 never executed
    #####: 1343:/*EOF*/
        -: 1344:/*EOF*/
        -: 1345:/*EOF*/
    #####: 1346:/*EOF*/
        -: 1347:/*EOF*/
        -: 1348:/*EOF*/
        -: 1349:/*EOF*/
    #####: 1350:/*EOF*/
branch  0 never executed
branch  1 never executed
    #####: 1351:/*EOF*/
call    0 never executed
branch  1 never executed
branch  2 never executed
    #####: 1352:/*EOF*/
    #####: 1353:/*EOF*/
call    0 never executed
branch  1 never executed
branch  2 never executed
    #####: 1354:/*EOF*/
        -: 1355:/*EOF*/
        -: 1356:/*EOF*/
        -: 1357:/*EOF*/
    #####: 1358:/*EOF*/
call    0 never executed
        -: 1359:/*EOF*/
        -: 1360:/*EOF*/
        -: 1361:/*EOF*/
        -: 1362:/*EOF*/
        -: 1363:/*EOF*/
        -: 1364:/*EOF*/
        -: 1365:/*EOF*/
        -: 1366:/*EOF*/
function array_concat called 0 returned 0% blocks executed 0%
    #####: 1367:/*EOF*/
        -: 1368:/*EOF*/
        -: 1369:/*EOF*/
        -: 1370:/*EOF*/
        -: 1371:/*EOF*/
        -: 1372:/*EOF*/
        -: 1373:/*EOF*/
        -: 1374:/*EOF*/
        -: 1375:/*EOF*/
    #####: 1376:/*EOF*/
        -: 1377:/*EOF*/
        -: 1378:/*EOF*/
    #####: 1379:/*EOF*/
    #####: 1380:/*EOF*/
branch  0 never executed
branch  1 never executed
call    2 never executed
        -: 1381:/*EOF*/
        -: 1382:/*EOF*/
    #####: 1383:/*EOF*/
call    0 never executed
    #####: 1384:/*EOF*/
branch  0 never executed
branch  1 never executed
    #####: 1385:/*EOF*/
    #####: 1386:/*EOF*/
        -: 1387:/*EOF*/
        -: 1388:/*EOF*/
    #####: 1389:/*EOF*/
    #####: 1390:/*EOF*/
branch  0 never executed
branch  1 never executed
    #####: 1391:/*EOF*/
    #####: 1392:/*EOF*/
branch  0 never executed
branch  1 never executed
    #####: 1393:/*EOF*/
    #####: 1394:/*EOF*/
branch  0 never executed
branch  1 never executed
branch  2 never executed
branch  3 never executed
call    4 never executed
branch  5 never executed
branch  6 never executed
    #####: 1395:/*EOF*/
call    0 never executed
branch  1 never executed
branch  2 never executed
        -: 1396:/*EOF*/
        -: 1397:/*EOF*/
        -: 1398:/*EOF*/
    #####: 1399:/*EOF*/
        -: 1400:/*EOF*/
    #####: 1401:/*EOF*/
call    0 never executed
branch  1 never executed
branch  2 never executed
    #####: 1402:/*EOF*/
    #####: 1403:/*EOF*/
branch  0 never executed
branch  1 never executed
    #####: 1404:/*EOF*/
call    0 never executed
branch  1 never executed
branch  2 never executed
    #####: 1405:/*EOF*/
    #####: 1406:/*EOF*/
branch  0 never executed
branch  1 never executed
        -: 1407:/*EOF*/
        -: 1408:/*EOF*/
        -: 1409:/*EOF*/
        -: 1410:/*EOF*/
    #####: 1411:/*EOF*/
        -: 1412:/*EOF*/
    #####: 1413:/*EOF*/
call    0 never executed
branch  1 never executed
branch  2 never executed
    #####: 1414:/*EOF*/
        -: 1415:/*EOF*/
        -: 1416:/*EOF*/
    #####: 1417:/*EOF*/
call    0 never executed
branch  1 never executed
branch  2 never executed
    #####: 1418:/*EOF*/
    #####: 1419:/*EOF*/
call    0 never executed
branch  1 never executed
branch  2 never executed
    #####: 1420:/*EOF*/
        -: 1421:/*EOF*/
    #####: 1422:/*EOF*/
    #####: 1423:/*EOF*/
        -: 1424:/*EOF*/
        -: 1425:/*EOF*/
        -: 1426:/*EOF*/
    #####: 1427:/*EOF*/
    #####: 1428:/*EOF*/
call    0 never executed
branch  1 never executed
branch  2 never executed
    #####: 1429:/*EOF*/
    #####: 1430:/*EOF*/
call    0 never executed
branch  1 never executed
branch  2 never executed
    #####: 1431:/*EOF*/
    #####: 1432:/*EOF*/
        -: 1433:/*EOF*/
        -: 1434:/*EOF*/
    #####: 1435:/*EOF*/
call    0 never executed
        -: 1436:/*EOF*/
        -: 1437:/*EOF*/
        -: 1438:/*EOF*/
function array_slice called 0 returned 0% blocks executed 0%
    #####: 1439:/*EOF*/
        -: 1440:/*EOF*/
        -: 1441:/*EOF*/
        -: 1442:/*EOF*/
        -: 1443:/*EOF*/
        -: 1444:/*EOF*/
        -: 1445:/*EOF*/
        -: 1446:/*EOF*/
        -: 1447:/*EOF*/
    #####: 1448:/*EOF*/
        -: 1449:/*EOF*/
        -: 1450:/*EOF*/
    #####: 1451:/*EOF*/
call    0 never executed
    #####: 1452:/*EOF*/
branch  0 never executed
branch  1 never executed
    #####: 1453:/*EOF*/
    #####: 1454:/*EOF*/
        -: 1455:/*EOF*/
    #####: 1456:/*EOF*/
call    0 never executed
branch  1 never executed
branch  2 never executed
    #####: 1457:/*EOF*/
    #####: 1458:/*EOF*/
    #####: 1459:/*EOF*/
        -: 1460:/*EOF*/
    #####: 1461:/*EOF*/
branch  0 never executed
branch  1 never executed
    #####: 1462:/*EOF*/
call    0 never executed
branch  1 never executed
branch  2 never executed
    #####: 1463:/*EOF*/
    #####: 1464:/*EOF*/
call    0 never executed
    #####: 1465:/*EOF*/
branch  0 never executed
branch  1 never executed
    #####: 1466:/*EOF*/
    #####: 1467:/*EOF*/
branch  0 never executed
branch  1 never executed
    #####: 1468:/*EOF*/
    #####: 1469:/*EOF*/
branch  0 never executed
branch  1 never executed
    #####: 1470:/*EOF*/
        -: 1471:/*EOF*/
    #####: 1472:/*EOF*/
        -: 1473:/*EOF*/
    #####: 1474:/*EOF*/
branch  0 never executed
branch  1 never executed
    #####: 1475:/*EOF*/
call    0 never executed
branch  1 never executed
branch  2 never executed
    #####: 1476:/*EOF*/
    #####: 1477:/*EOF*/
call    0 never executed
    #####: 1478:/*EOF*/
branch  0 never executed
branch  1 never executed
    #####: 1479:/*EOF*/
    #####: 1480:/*EOF*/
branch  0 never executed
branch  1 never executed
    #####: 1481:/*EOF*/
    #####: 1482:/*EOF*/
branch  0 never executed
branch  1 never executed
    #####: 1483:/*EOF*/
        -: 1484:/*EOF*/
    #####: 1485:/*EOF*/
        -: 1486:/*EOF*/
        -: 1487:/*EOF*/
        -: 1488:/*EOF*/
    #####: 1489:/*EOF*/
branch  0 never executed
branch  1 never executed
    #####: 1490:/*EOF*/
        -: 1491:/*EOF*/
    #####: 1492:/*EOF*/
branch  0 never executed
branch  1 never executed
    #####: 1493:/*EOF*/
call    0 never executed
branch  1 never executed
branch  2 never executed
    #####: 1494:/*EOF*/
    #####: 1495:/*EOF*/
branch  0 never executed
branch  1 never executed
    #####: 1496:/*EOF*/
    #####: 1497:/*EOF*/
call    0 never executed
branch  1 never executed
branch  2 never executed
    #####: 1498:/*EOF*/
        -: 1499:/*EOF*/
        -: 1500:/*EOF*/
    #####: 1501:/*EOF*/
call    0 never executed
branch  1 never executed
branch  2 never executed
    #####: 1502:/*EOF*/
    #####: 1503:/*EOF*/
call    0 never executed
branch  1 never executed
branch  2 never executed
    #####: 1504:/*EOF*/
        -: 1505:/*EOF*/
    #####: 1506:/*EOF*/
call    0 never executed
        -: 1507:/*EOF*/
        -: 1508:/*EOF*/
        -: 1509:/*EOF*/
        -: 1510:/*EOF*/
        -: 1511:/*EOF*/
        -: 1512:/*EOF*/
function array_indexOfHelper called 0 returned 0% blocks executed 0%
    #####: 1513:/*EOF*/
        -: 1514:/*EOF*/
        -: 1515:/*EOF*/
        -: 1516:/*EOF*/
        -: 1517:/*EOF*/
        -: 1518:/*EOF*/
    #####: 1519:/*EOF*/
call    0 never executed
branch  1 never executed
branch  2 never executed
    #####: 1520:/*EOF*/
    #####: 1521:/*EOF*/
branch  0 never executed
branch  1 never executed
    #####: 1522:/*EOF*/
        -: 1523:/*EOF*/
    #####: 1524:/*EOF*/
branch  0 never executed
branch  1 never executed
    #####: 1525:/*EOF*/
branch  0 never executed
branch  1 never executed
        -: 1526:/*EOF*/
        -: 1527:/*EOF*/
        -: 1528:/*EOF*/
    #####: 1529:/*EOF*/
call    0 never executed
branch  1 never executed
branch  2 never executed
    #####: 1530:/*EOF*/
    #####: 1531:/*EOF*/
call    0 never executed
    #####: 1532:/*EOF*/
branch  0 never executed
branch  1 never executed
    #####: 1533:/*EOF*/
    #####: 1534:/*EOF*/
branch  0 never executed
branch  1 never executed
    #####: 1535:/*EOF*/
branch  0 never executed
branch  1 never executed
    #####: 1536:/*EOF*/
        -: 1537:/*EOF*/
    #####: 1538:/*EOF*/
        -: 1539:/*EOF*/
        -: 1540:/*EOF*/
        -: 1541:/*EOF*/
    #####: 1542:/*EOF*/
branch  0 never executed
branch  1 never executed
    #####: 1543:/*EOF*/
    #####: 1544:/*EOF*/
        -: 1545:/*EOF*/
    #####: 1546:/*EOF*/
    #####: 1547:/*EOF*/
        -: 1548:/*EOF*/
        -: 1549:/*EOF*/
        -: 1550:/*EOF*/
        -: 1551:/*EOF*/
        -: 1552:/*EOF*/
        -: 1553:/*EOF*/
    #####: 1554:/*EOF*/
call    0 never executed
branch  1 never executed
branch  2 never executed
    #####: 1555:/*EOF*/
    #####: 1556:/*EOF*/
branch  0 never executed
branch  1 never executed
    #####: 1557:/*EOF*/
call    0 never executed
branch  1 never executed
branch  2 never executed
    #####: 1558:/*EOF*/
    #####: 1559:/*EOF*/
call    0 never executed
branch  1 never executed
branch  2 never executed
    #####: 1560:/*EOF*/
call    0 never executed
        -: 1561:/*EOF*/
        -: 1562:/*EOF*/
    #####: 1563:/*EOF*/
branch  0 never executed
branch  1 never executed
    #####: 1564:/*EOF*/
    #####: 1565:/*EOF*/
    #####: 1566:/*EOF*/
        -: 1567:/*EOF*/
        -: 1568:/*EOF*/
    #####: 1569:/*EOF*/
    #####: 1570:/*EOF*/
        -: 1571:/*EOF*/
        -: 1572:/*EOF*/
        -: 1573:/*EOF*/
function array_indexOf called 0 returned 0% blocks executed 0%
    #####: 1574:/*EOF*/
        -: 1575:/*EOF*/
        -: 1576:/*EOF*/
    #####: 1577:/*EOF*/
call    0 never executed
        -: 1578:/*EOF*/
        -: 1579:/*EOF*/
        -: 1580:/*EOF*/
function array_lastIndexOf called 0 returned 0% blocks executed 0%
    #####: 1581:/*EOF*/
        -: 1582:/*EOF*/
        -: 1583:/*EOF*/
    #####: 1584:/*EOF*/
call    0 never executed
        -: 1585:/*EOF*/
        -: 1586:/*EOF*/
        -: 1587:/*EOF*/
        -: 1588:/*EOF*/
        -: 1589:/*EOF*/
        -: 1590:/*EOF*/
        -: 1591:/*EOF*/
        -: 1592:/*EOF*/
        -: 1593:/*EOF*/
        -: 1594:/*EOF*/
        -: 1595:/*EOF*/
        -: 1596:/*EOF*/
function array_extra called 1 returned 100% blocks executed 45%
        1: 1597:/*EOF*/
        -: 1598:/*EOF*/
        -: 1599:/*EOF*/
        -: 1600:/*EOF*/
        -: 1601:/*EOF*/
        -: 1602:/*EOF*/
        -: 1603:/*EOF*/
        -: 1604:/*EOF*/
        -: 1605:/*EOF*/
        -: 1606:/*EOF*/
        -: 1607:/*EOF*/
        1: 1608:/*EOF*/
        -: 1609:/*EOF*/
        1: 1610:/*EOF*/
call    0 returned 100%
branch  1 taken 0% (fallthrough)
branch  2 taken 100%
    #####: 1611:/*EOF*/
        -: 1612:/*EOF*/
        -: 1613:/*EOF*/
        -: 1614:/*EOF*/
        -: 1615:/*EOF*/
        -: 1616:/*EOF*/
        1: 1617:/*EOF*/
call    0 returned 100%
        1: 1618:/*EOF*/
branch  0 taken 0% (fallthrough)
branch  1 taken 100%
    #####: 1619:/*EOF*/
        -: 1620:/*EOF*/
        -: 1621:/*EOF*/
        -: 1622:/*EOF*/
        -: 1623:/*EOF*/
        -: 1624:/*EOF*/
        -: 1625:/*EOF*/
        1: 1626:/*EOF*/
        1: 1627:/*EOF*/
        1: 1628:/*EOF*/
        -: 1629:/*EOF*/
        1: 1630:/*EOF*/
branch  0 taken 100%
branch  1 taken 0%
branch  2 taken 0%
branch  3 taken 0%
        -: 1631:/*EOF*/
        -: 1632:/*EOF*/
        1: 1633:/*EOF*/
branch  0 taken 100% (fallthrough)
branch  1 taken 0%
        1: 1634:/*EOF*/
call    0 returned 100%
        1: 1635:/*EOF*/
branch  0 taken 0% (fallthrough)
branch  1 taken 100%
    #####: 1636:/*EOF*/
        1: 1637:/*EOF*/
        1: 1638:/*EOF*/
        -: 1639:/*EOF*/
    #####: 1640:/*EOF*/
    #####: 1641:/*EOF*/
        -: 1642:/*EOF*/
    #####: 1643:/*EOF*/
        -: 1644:/*EOF*/
        -: 1645:/*EOF*/
        -: 1646:/*EOF*/
        -: 1647:/*EOF*/
        -: 1648:/*EOF*/
        1: 1649:/*EOF*/
branch  0 taken 0% (fallthrough)
branch  1 taken 100%
    #####: 1650:/*EOF*/
        -: 1651:/*EOF*/
        1: 1652:/*EOF*/
branch  0 taken 0% (fallthrough)
branch  1 taken 100%
    #####: 1653:/*EOF*/
call    0 never executed
branch  1 never executed
branch  2 never executed
    #####: 1654:/*EOF*/
    #####: 1655:/*EOF*/
        -: 1656:/*EOF*/
        1: 1657:/*EOF*/
        -: 1658:/*EOF*/
        -: 1659:/*EOF*/
        -: 1660:/*EOF*/
        1: 1661:/*EOF*/
call    0 returned 100%
        1: 1662:/*EOF*/
branch  0 taken 0% (fallthrough)
branch  1 taken 100%
    #####: 1663:/*EOF*/
        -: 1664:/*EOF*/
        -: 1665:/*EOF*/
        1: 1666:/*EOF*/
        1: 1667:/*EOF*/
        -: 1668:/*EOF*/
        5: 1669:/*EOF*/
branch  0 taken 80%
branch  1 taken 20% (fallthrough)
        -: 1670:/*EOF*/
        -: 1671:/*EOF*/
        -: 1672:/*EOF*/
        4: 1673:/*EOF*/
call    0 returned 100%
        4: 1674:/*EOF*/
branch  0 taken 0% (fallthrough)
branch  1 taken 100%
    #####: 1675:/*EOF*/
        4: 1676:/*EOF*/
branch  0 taken 0% (fallthrough)
branch  1 taken 100%
    #####: 1677:/*EOF*/
        4: 1678:/*EOF*/
call    0 returned 100%
        4: 1679:/*EOF*/
branch  0 taken 0% (fallthrough)
branch  1 taken 100%
    #####: 1680:/*EOF*/
        -: 1681:/*EOF*/
        -: 1682:/*EOF*/
        -: 1683:/*EOF*/
        -: 1684:/*EOF*/
        -: 1685:/*EOF*/
        -: 1686:/*EOF*/
        4: 1687:/*EOF*/
        4: 1688:/*EOF*/
        4: 1689:/*EOF*/
        4: 1690:/*EOF*/
        4: 1691:/*EOF*/
        4: 1692:/*EOF*/
        -: 1693:/*EOF*/
        -: 1694:/*EOF*/
        4: 1695:/*EOF*/
        4: 1696:/*EOF*/
call    0 returned 100%
        4: 1697:/*EOF*/
        4: 1698:/*EOF*/
        4: 1699:/*EOF*/
branch  0 taken 0% (fallthrough)
branch  1 taken 100%
    #####: 1700:/*EOF*/
        -: 1701:/*EOF*/
        4: 1702:/*EOF*/
branch  0 taken 0% (fallthrough)
branch  1 taken 100%
    #####: 1703:/*EOF*/
branch  0 never executed
branch  1 never executed
    #####: 1704:/*EOF*/
    #####: 1705:/*EOF*/
branch  0 never executed
branch  1 never executed
    #####: 1706:/*EOF*/
        -: 1707:/*EOF*/
    #####: 1708:/*EOF*/
call    0 never executed
    #####: 1709:/*EOF*/
branch  0 never executed
branch  1 never executed
    #####: 1710:/*EOF*/
        -: 1711:/*EOF*/
        -: 1712:/*EOF*/
        -: 1713:/*EOF*/
        4: 1714:/*EOF*/
branch  0 taken 0%
branch  1 taken 100%
branch  2 taken 0%
branch  3 taken 0%
branch  4 taken 0%
branch  5 taken 0%
        -: 1715:/*EOF*/
    #####: 1716:/*EOF*/
        -: 1717:/*EOF*/
        -: 1718:/*EOF*/
        -: 1719:/*EOF*/
        -: 1720:/*EOF*/
        -: 1721:/*EOF*/
        4: 1722:/*EOF*/
branch  0 taken 0% (fallthrough)
branch  1 taken 100%
    #####: 1723:/*EOF*/
call    0 never executed
    #####: 1724:/*EOF*/
branch  0 never executed
branch  1 never executed
    #####: 1725:/*EOF*/
        -: 1726:/*EOF*/
        4: 1727:/*EOF*/
call    0 returned 100%
        4: 1728:/*EOF*/
branch  0 taken 0% (fallthrough)
branch  1 taken 100%
    #####: 1729:/*EOF*/
        4: 1730:/*EOF*/
        -: 1731:/*EOF*/
    #####: 1732:/*EOF*/
branch  0 never executed
branch  1 never executed
    #####: 1733:/*EOF*/
        -: 1734:/*EOF*/
    #####: 1735:/*EOF*/
call    0 never executed
    #####: 1736:/*EOF*/
branch  0 never executed
branch  1 never executed
    #####: 1737:/*EOF*/
    #####: 1738:/*EOF*/
call    0 never executed
    #####: 1739:/*EOF*/
branch  0 never executed
branch  1 never executed
    #####: 1740:/*EOF*/
    #####: 1741:/*EOF*/
        -: 1742:/*EOF*/
    #####: 1743:/*EOF*/
branch  0 never executed
branch  1 never executed
    #####: 1744:/*EOF*/
    #####: 1745:/*EOF*/
        -: 1746:/*EOF*/
    #####: 1747:/*EOF*/
        -: 1748:/*EOF*/
    #####: 1749:/*EOF*/
branch  0 never executed
branch  1 never executed
    #####: 1750:/*EOF*/
    #####: 1751:/*EOF*/
        -: 1752:/*EOF*/
        -: 1753:/*EOF*/
        -: 1754:/*EOF*/
        -: 1755:/*EOF*/
        -: 1756:/*EOF*/
        -: 1757:/*EOF*/
        1: 1758:/*EOF*/
call    0 returned 100%
        1: 1759:/*EOF*/
branch  0 taken 100% (fallthrough)
branch  1 taken 0%
branch  2 taken 0% (fallthrough)
branch  3 taken 100%
    #####: 1760:/*EOF*/
call    0 never executed
        1: 1761:/*EOF*/
        -: 1762:/*EOF*/
        -: 1763:/*EOF*/
        -: 1764:/*EOF*/
function array_forEach called 0 returned 0% blocks executed 0%
    #####: 1765:/*EOF*/
        -: 1766:/*EOF*/
        -: 1767:/*EOF*/
    #####: 1768:/*EOF*/
call    0 never executed
        -: 1769:/*EOF*/
        -: 1770:/*EOF*/
        -: 1771:/*EOF*/
function array_map called 1 returned 100% blocks executed 100%
        1: 1772:/*EOF*/
        -: 1773:/*EOF*/
        -: 1774:/*EOF*/
        1: 1775:/*EOF*/
call    0 returned 100%
        -: 1776:/*EOF*/
        -: 1777:/*EOF*/
        -: 1778:/*EOF*/
function array_filter called 0 returned 0% blocks executed 0%
    #####: 1779:/*EOF*/
        -: 1780:/*EOF*/
        -: 1781:/*EOF*/
    #####: 1782:/*EOF*/
call    0 never executed
        -: 1783:/*EOF*/
        -: 1784:/*EOF*/
        -: 1785:/*EOF*/
function array_some called 0 returned 0% blocks executed 0%
    #####: 1786:/*EOF*/
        -: 1787:/*EOF*/
        -: 1788:/*EOF*/
    #####: 1789:/*EOF*/
call    0 never executed
        -: 1790:/*EOF*/
        -: 1791:/*EOF*/
        -: 1792:/*EOF*/
function array_every called 0 returned 0% blocks executed 0%
    #####: 1793:/*EOF*/
        -: 1794:/*EOF*/
        -: 1795:/*EOF*/
    #####: 1796:/*EOF*/
call    0 never executed
        -: 1797:/*EOF*/
        -: 1798:/*EOF*/
        -: 1799:/*EOF*/
        -: 1800:/*EOF*/
        -: 1801:/*EOF*/
        -: 1802:/*EOF*/
        -: 1803:/*EOF*/
        -: 1804:/*EOF*/
        -: 1805:/*EOF*/
        -: 1806:/*EOF*/
        -: 1807:/*EOF*/
        -: 1808:/*EOF*/
        -: 1809:/*EOF*/
        -: 1810:/*EOF*/
        -: 1811:/*EOF*/
        -: 1812:/*EOF*/
        -: 1813:/*EOF*/
        -: 1814:/*EOF*/
        -: 1815:/*EOF*/
        -: 1816:/*EOF*/
        -: 1817:/*EOF*/
        -: 1818:/*EOF*/
        -: 1819:/*EOF*/
        -: 1820:/*EOF*/
        -: 1821:/*EOF*/
        -: 1822:/*EOF*/
        -: 1823:/*EOF*/
        -: 1824:/*EOF*/
        -: 1825:/*EOF*/
        -: 1826:/*EOF*/
        -: 1827:/*EOF*/
        -: 1828:/*EOF*/
        -: 1829:/*EOF*/
        -: 1830:/*EOF*/
        -: 1831:/*EOF*/
        -: 1832:/*EOF*/
        -: 1833:/*EOF*/
        -: 1834:/*EOF*/
        -: 1835:/*EOF*/
        -: 1836:/*EOF*/
        -: 1837:/*EOF*/
        -: 1838:/*EOF*/
        -: 1839:/*EOF*/
        -: 1840:/*EOF*/
function Array called 18 returned 100% blocks executed 27%
       18: 1841:/*EOF*/
        -: 1842:/*EOF*/
        -: 1843:/*EOF*/
        -: 1844:/*EOF*/
        -: 1845:/*EOF*/
        -: 1846:/*EOF*/
       18: 1847:/*EOF*/
branch  0 taken 0% (fallthrough)
branch  1 taken 100%
    #####: 1848:/*EOF*/
call    0 never executed
    #####: 1849:/*EOF*/
branch  0 never executed
branch  1 never executed
    #####: 1850:/*EOF*/
    #####: 1851:/*EOF*/
        -: 1852:/*EOF*/
        -: 1853:/*EOF*/
       18: 1854:/*EOF*/
branch  0 taken 100% (fallthrough)
branch  1 taken 0%
       18: 1855:/*EOF*/
       18: 1856:/*EOF*/
    #####: 1857:/*EOF*/
branch  0 never executed
branch  1 never executed
    #####: 1858:/*EOF*/
    #####: 1859:/*EOF*/
    #####: 1860:/*EOF*/
branch  0 never executed
branch  1 never executed
    #####: 1861:/*EOF*/
    #####: 1862:/*EOF*/
    #####: 1863:/*EOF*/
branch  0 never executed
branch  1 never executed
branch  2 never executed
branch  3 never executed
branch  4 never executed
branch  5 never executed
    #####: 1864:/*EOF*/
    #####: 1865:/*EOF*/
        -: 1866:/*EOF*/
    #####: 1867:/*EOF*/
call    0 never executed
branch  1 never executed
branch  2 never executed
    #####: 1868:/*EOF*/
    #####: 1869:/*EOF*/
        -: 1870:/*EOF*/
       18: 1871:/*EOF*/
call    0 returned 100%
        -: 1872:/*EOF*/
        -: 1873:/*EOF*/
        -: 1874:/*EOF*/
function js_InitArrayClass called 1 returned 100% blocks executed 86%
        1: 1875:/*EOF*/
        -: 1876:/*EOF*/
        -: 1877:/*EOF*/
        -: 1878:/*EOF*/
        1: 1879:/*EOF*/
call    0 returned 100%
        -: 1880:/*EOF*/
        -: 1881:/*EOF*/
        -: 1882:/*EOF*/
        1: 1883:/*EOF*/
branch  0 taken 100% (fallthrough)
branch  1 taken 0%
call    2 returned 100%
branch  3 taken 0% (fallthrough)
branch  4 taken 100%
    #####: 1884:/*EOF*/
        1: 1885:/*EOF*/
        -: 1886:/*EOF*/
        -: 1887:/*EOF*/
        -: 1888:/*EOF*/
function js_NewArrayObject called 2 returned 100% blocks executed 75%
        2: 1889:/*EOF*/
        -: 1890:/*EOF*/
        -: 1891:/*EOF*/
        -: 1892:/*EOF*/
        2: 1893:/*EOF*/
call    0 returned 100%
        2: 1894:/*EOF*/
branch  0 taken 0% (fallthrough)
branch  1 taken 100%
    #####: 1895:/*EOF*/
        2: 1896:/*EOF*/
call    0 returned 100%
branch  1 taken 0% (fallthrough)
branch  2 taken 100%
    #####: 1897:/*EOF*/
    #####: 1898:/*EOF*/
        -: 1899:/*EOF*/
        2: 1900:/*EOF*/
