        -:    0:Source:jsatom.c
        -:    0:Graph:jsatom.gcno
        -:    0:Data:jsatom.gcda
        -:    0:Runs:1
        -:    0:Programs:1
        -:    1:/*EOF*/
        -:    2:/*EOF*/
        -:    3:/*EOF*/
        -:    4:/*EOF*/
        -:    5:/*EOF*/
        -:    6:/*EOF*/
        -:    7:/*EOF*/
        -:    8:/*EOF*/
        -:    9:/*EOF*/
        -:   10:/*EOF*/
        -:   11:/*EOF*/
        -:   12:/*EOF*/
        -:   13:/*EOF*/
        -:   14:/*EOF*/
        -:   15:/*EOF*/
        -:   16:/*EOF*/
        -:   17:/*EOF*/
        -:   18:/*EOF*/
        -:   19:/*EOF*/
        -:   20:/*EOF*/
        -:   21:/*EOF*/
        -:   22:/*EOF*/
        -:   23:/*EOF*/
        -:   24:/*EOF*/
        -:   25:/*EOF*/
        -:   26:/*EOF*/
        -:   27:/*EOF*/
        -:   28:/*EOF*/
        -:   29:/*EOF*/
        -:   30:/*EOF*/
        -:   31:/*EOF*/
        -:   32:/*EOF*/
        -:   33:/*EOF*/
        -:   34:/*EOF*/
        -:   35:/*EOF*/
        -:   36:/*EOF*/
        -:   37:/*EOF*/
        -:   38:/*EOF*/
        -:   39:/*EOF*/
        -:   40:/*EOF*/
        -:   41:/*EOF*/
        -:   42:/*EOF*/
        -:   43:/*EOF*/
        -:   44:/*EOF*/
        -:   45:/*EOF*/
        -:   46:/*EOF*/
        -:   47:/*EOF*/
        -:   48:/*EOF*/
        -:   49:/*EOF*/
        -:   50:/*EOF*/
        -:   51:/*EOF*/
        -:   52:/*EOF*/
        -:   53:/*EOF*/
        -:   54:/*EOF*/
        -:   55:/*EOF*/
        -:   56:/*EOF*/
        -:   57:/*EOF*/
        -:   58:/*EOF*/
        -:   59:/*EOF*/
        -:   60:/*EOF*/
function js_AtomToPrintableString called 2 returned 100% blocks executed 100%
        2:   61:/*EOF*/
        -:   62:/*EOF*/
        2:   63:/*EOF*/
call    0 returned 100%
        -:   64:/*EOF*/
        -:   65:/*EOF*/
        -:   66:/*EOF*/
        -:   67:/*EOF*/
        -:   68:/*EOF*/
        -:   69:/*EOF*/
        -:   70:/*EOF*/
        -:   71:/*EOF*/
        -:   72:/*EOF*/
        -:   73:/*EOF*/
        -:   74:/*EOF*/
        -:   75:/*EOF*/
        -:   76:/*EOF*/
        -:   77:/*EOF*/
        -:   78:/*EOF*/
        -:   79:/*EOF*/
        -:   80:/*EOF*/
        -:   81:/*EOF*/
        -:   82:/*EOF*/
        -:   83:/*EOF*/
        -:   84:/*EOF*/
        -:   85:/*EOF*/
        -:   86:/*EOF*/
        -:   87:/*EOF*/
        -:   88:/*EOF*/
        -:   89:/*EOF*/
        -:   90:/*EOF*/
        -:   91:/*EOF*/
        -:   92:/*EOF*/
        -:   93:/*EOF*/
        -:   94:/*EOF*/
        -:   95:/*EOF*/
        -:   96:/*EOF*/
        -:   97:/*EOF*/
        -:   98:/*EOF*/
        -:   99:/*EOF*/
        -:  100:/*EOF*/
        -:  101:/*EOF*/
        -:  102:/*EOF*/
        -:  103:/*EOF*/
        -:  104:/*EOF*/
        -:  105:/*EOF*/
        -:  106:/*EOF*/
        -:  107:/*EOF*/
        -:  108:/*EOF*/
        -:  109:/*EOF*/
        -:  110:/*EOF*/
        -:  111:/*EOF*/
        -:  112:/*EOF*/
        -:  113:/*EOF*/
        -:  114:/*EOF*/
        -:  115:/*EOF*/
        -:  116:/*EOF*/
        -:  117:/*EOF*/
        -:  118:/*EOF*/
        -:  119:/*EOF*/
        -:  120:/*EOF*/
        -:  121:/*EOF*/
        -:  122:/*EOF*/
        -:  123:/*EOF*/
        -:  124:/*EOF*/
        -:  125:/*EOF*/
        -:  126:/*EOF*/
        -:  127:/*EOF*/
        -:  128:/*EOF*/
        -:  129:/*EOF*/
        -:  130:/*EOF*/
        -:  131:/*EOF*/
        -:  132:/*EOF*/
        -:  133:/*EOF*/
        -:  134:/*EOF*/
        -:  135:/*EOF*/
        -:  136:/*EOF*/
        -:  137:/*EOF*/
        -:  138:/*EOF*/
        -:  139:/*EOF*/
        -:  140:/*EOF*/
        -:  141:/*EOF*/
        -:  142:/*EOF*/
        -:  143:/*EOF*/
        -:  144:/*EOF*/
        -:  145:/*EOF*/
        -:  146:/*EOF*/
        -:  147:/*EOF*/
        -:  148:/*EOF*/
        -:  149:/*EOF*/
        -:  150:/*EOF*/
        -:  151:/*EOF*/
        -:  152:/*EOF*/
        -:  153:/*EOF*/
        -:  154:/*EOF*/
        -:  155:/*EOF*/
        -:  156:/*EOF*/
        -:  157:/*EOF*/
        -:  158:/*EOF*/
        -:  159:/*EOF*/
        -:  160:/*EOF*/
function js_hash_atom_key called 0 returned 0% blocks executed 0%
    #####:  161:/*EOF*/
        -:  162:/*EOF*/
        -:  163:/*EOF*/
        -:  164:/*EOF*/
        -:  165:/*EOF*/
        -:  166:/*EOF*/
    #####:  167:/*EOF*/
    #####:  168:/*EOF*/
branch  0 never executed
branch  1 never executed
    #####:  169:/*EOF*/
call    0 never executed
    #####:  170:/*EOF*/
branch  0 never executed
branch  1 never executed
branch  2 never executed
branch  3 never executed
    #####:  171:/*EOF*/
    #####:  172:/*EOF*/
branch  0 never executed
branch  1 never executed
    #####:  173:/*EOF*/
    #####:  174:/*EOF*/
        -:  175:/*EOF*/
    #####:  176:/*EOF*/
branch  0 never executed
branch  1 never executed
    #####:  177:/*EOF*/
    #####:  178:/*EOF*/
branch  0 never executed
branch  1 never executed
    #####:  179:/*EOF*/
    #####:  180:/*EOF*/
        -:  181:/*EOF*/
        -:  182:/*EOF*/
        -:  183:/*EOF*/
function js_compare_atom_keys called 9362 returned 100% blocks executed 39%
     9362:  184:/*EOF*/
        -:  185:/*EOF*/
        -:  186:/*EOF*/
        -:  187:/*EOF*/
     9362:  188:/*EOF*/
     9362:  189:/*EOF*/
branch  0 taken 99% (fallthrough)
branch  1 taken 1%
branch  2 taken 100% (fallthrough)
branch  3 taken 0%
     9299:  190:/*EOF*/
call    0 returned 100%
       63:  191:/*EOF*/
branch  0 taken 0% (fallthrough)
branch  1 taken 100%
branch  2 never executed
branch  3 never executed
    #####:  192:/*EOF*/
    #####:  193:/*EOF*/
    #####:  194:/*EOF*/
branch  0 never executed
branch  1 never executed
branch  2 never executed
branch  3 never executed
branch  4 never executed
branch  5 never executed
    #####:  195:/*EOF*/
branch  0 never executed
branch  1 never executed
branch  2 never executed
branch  3 never executed
branch  4 never executed
branch  5 never executed
        -:  196:/*EOF*/
        -:  197:/*EOF*/
        -:  198:/*EOF*/
        -:  199:/*EOF*/
        -:  200:/*EOF*/
    #####:  201:/*EOF*/
        -:  202:/*EOF*/
       63:  203:/*EOF*/
        -:  204:/*EOF*/
        -:  205:/*EOF*/
        -:  206:/*EOF*/
function js_compare_stub called 0 returned 0% blocks executed 0%
    #####:  207:/*EOF*/
        -:  208:/*EOF*/
    #####:  209:/*EOF*/
        -:  210:/*EOF*/
        -:  211:/*EOF*/
        -:  212:/*EOF*/
        -:  213:/*EOF*/
function js_alloc_table_space called 12 returned 100% blocks executed 100%
       12:  214:/*EOF*/
        -:  215:/*EOF*/
       12:  216:/*EOF*/
        -:  217:/*EOF*/
        -:  218:/*EOF*/
        -:  219:/*EOF*/
function js_free_table_space called 12 returned 100% blocks executed 100%
       12:  220:/*EOF*/
        -:  221:/*EOF*/
       12:  222:/*EOF*/
       12:  223:/*EOF*/
        -:  224:/*EOF*/
        -:  225:/*EOF*/
function js_alloc_atom called 1521 returned 100% blocks executed 75%
     1521:  226:/*EOF*/
        -:  227:/*EOF*/
     1521:  228:/*EOF*/
        -:  229:/*EOF*/
        -:  230:/*EOF*/
     1521:  231:/*EOF*/
     1521:  232:/*EOF*/
branch  0 taken 0% (fallthrough)
branch  1 taken 100%
    #####:  233:/*EOF*/
        -:  234:/*EOF*/
        -:  235:/*EOF*/
        -:  236:/*EOF*/
     1521:  237:/*EOF*/
     1521:  238:/*EOF*/
     1521:  239:/*EOF*/
     1521:  240:/*EOF*/
     1521:  241:/*EOF*/
        -:  242:/*EOF*/
        -:  243:/*EOF*/
        -:  244:/*EOF*/
function js_free_atom called 1521 returned 100% blocks executed 75%
     1521:  245:/*EOF*/
        -:  246:/*EOF*/
     1521:  247:/*EOF*/
branch  0 taken 0% (fallthrough)
branch  1 taken 100%
    #####:  248:/*EOF*/
        -:  249:/*EOF*/
        -:  250:/*EOF*/
        -:  251:/*EOF*/
     1521:  252:/*EOF*/
        -:  253:/*EOF*/
        -:  254:/*EOF*/
        -:  255:/*EOF*/
        -:  256:/*EOF*/
        -:  257:/*EOF*/
        -:  258:/*EOF*/
        -:  259:/*EOF*/
        -:  260:/*EOF*/
        -:  261:/*EOF*/
        -:  262:/*EOF*/
function js_InitAtomState called 1 returned 100% blocks executed 60%
        1:  263:/*EOF*/
        -:  264:/*EOF*/
        1:  265:/*EOF*/
call    0 returned 100%
        -:  266:/*EOF*/
        -:  267:/*EOF*/
        1:  268:/*EOF*/
branch  0 taken 0% (fallthrough)
branch  1 taken 100%
    #####:  269:/*EOF*/
call    0 never executed
    #####:  270:/*EOF*/
        -:  271:/*EOF*/
        -:  272:/*EOF*/
        1:  273:/*EOF*/
        -:  274:/*EOF*/
        -:  275:/*EOF*/
        -:  276:/*EOF*/
        -:  277:/*EOF*/
        -:  278:/*EOF*/
        1:  279:/*EOF*/
call    0 returned 100%
branch  1 taken 0% (fallthrough)
branch  2 taken 100%
    #####:  280:/*EOF*/
call    0 never executed
    #####:  281:/*EOF*/
        -:  282:/*EOF*/
        1:  283:/*EOF*/
        -:  284:/*EOF*/
        -:  285:/*EOF*/
        -:  286:/*EOF*/
function js_InitPinnedAtoms called 1 returned 100% blocks executed 68%
        1:  287:/*EOF*/
        -:  288:/*EOF*/
        -:  289:/*EOF*/
        -:  290:/*EOF*/
        -:  291:/*EOF*/
        -:  292:/*EOF*/
        -:  293:/*EOF*/
        -:  294:/*EOF*/
        -:  295:/*EOF*/
        -:  296:/*EOF*/
        -:  297:/*EOF*/
        9:  298:/*EOF*/
branch  0 taken 89%
branch  1 taken 11% (fallthrough)
        8:  299:/*EOF*/
call    0 returned 100%
branch  1 taken 0% (fallthrough)
branch  2 taken 100%
        -:  300:/*EOF*/
        1:  301:/*EOF*/
call    0 returned 100%
branch  1 taken 0% (fallthrough)
branch  2 taken 100%
        1:  302:/*EOF*/
call    0 returned 100%
branch  1 taken 0% (fallthrough)
branch  2 taken 100%
        1:  303:/*EOF*/
call    0 returned 100%
branch  1 taken 0% (fallthrough)
branch  2 taken 100%
        -:  304:/*EOF*/
        1:  305:/*EOF*/
call    0 returned 100%
branch  1 taken 0% (fallthrough)
branch  2 taken 100%
        1:  306:/*EOF*/
call    0 returned 100%
branch  1 taken 0% (fallthrough)
branch  2 taken 100%
        1:  307:/*EOF*/
call    0 returned 100%
branch  1 taken 0% (fallthrough)
branch  2 taken 100%
        1:  308:/*EOF*/
call    0 returned 100%
branch  1 taken 0% (fallthrough)
branch  2 taken 100%
        1:  309:/*EOF*/
call    0 returned 100%
branch  1 taken 0% (fallthrough)
branch  2 taken 100%
        -:  310:/*EOF*/
        1:  311:/*EOF*/
call    0 returned 100%
branch  1 taken 0% (fallthrough)
branch  2 taken 100%
        -:  312:/*EOF*/
        1:  313:/*EOF*/
call    0 returned 100%
branch  1 taken 0% (fallthrough)
branch  2 taken 100%
        1:  314:/*EOF*/
call    0 returned 100%
branch  1 taken 0% (fallthrough)
branch  2 taken 100%
        1:  315:/*EOF*/
call    0 returned 100%
branch  1 taken 0% (fallthrough)
branch  2 taken 100%
        1:  316:/*EOF*/
call    0 returned 100%
branch  1 taken 0% (fallthrough)
branch  2 taken 100%
        1:  317:/*EOF*/
call    0 returned 100%
branch  1 taken 0% (fallthrough)
branch  2 taken 100%
        1:  318:/*EOF*/
call    0 returned 100%
branch  1 taken 0% (fallthrough)
branch  2 taken 100%
        1:  319:/*EOF*/
call    0 returned 100%
branch  1 taken 0% (fallthrough)
branch  2 taken 100%
        1:  320:/*EOF*/
call    0 returned 100%
branch  1 taken 0% (fallthrough)
branch  2 taken 100%
        1:  321:/*EOF*/
call    0 returned 100%
branch  1 taken 0% (fallthrough)
branch  2 taken 100%
        1:  322:/*EOF*/
call    0 returned 100%
branch  1 taken 0% (fallthrough)
branch  2 taken 100%
        1:  323:/*EOF*/
call    0 returned 100%
branch  1 taken 0% (fallthrough)
branch  2 taken 100%
        1:  324:/*EOF*/
call    0 returned 100%
branch  1 taken 0% (fallthrough)
branch  2 taken 100%
        1:  325:/*EOF*/
call    0 returned 100%
branch  1 taken 0% (fallthrough)
branch  2 taken 100%
        1:  326:/*EOF*/
call    0 returned 100%
branch  1 taken 0% (fallthrough)
branch  2 taken 100%
        1:  327:/*EOF*/
call    0 returned 100%
branch  1 taken 0% (fallthrough)
branch  2 taken 100%
        1:  328:/*EOF*/
call    0 returned 100%
branch  1 taken 0% (fallthrough)
branch  2 taken 100%
        1:  329:/*EOF*/
call    0 returned 100%
branch  1 taken 0% (fallthrough)
branch  2 taken 100%
        1:  330:/*EOF*/
call    0 returned 100%
branch  1 taken 0% (fallthrough)
branch  2 taken 100%
        1:  331:/*EOF*/
call    0 returned 100%
branch  1 taken 0% (fallthrough)
branch  2 taken 100%
        1:  332:/*EOF*/
call    0 returned 100%
branch  1 taken 0% (fallthrough)
branch  2 taken 100%
        1:  333:/*EOF*/
call    0 returned 100%
branch  1 taken 0% (fallthrough)
branch  2 taken 100%
        1:  334:/*EOF*/
call    0 returned 100%
branch  1 taken 0% (fallthrough)
branch  2 taken 100%
        1:  335:/*EOF*/
call    0 returned 100%
branch  1 taken 0% (fallthrough)
branch  2 taken 100%
        1:  336:/*EOF*/
call    0 returned 100%
branch  1 taken 0% (fallthrough)
branch  2 taken 100%
        1:  337:/*EOF*/
call    0 returned 100%
branch  1 taken 0% (fallthrough)
branch  2 taken 100%
        1:  338:/*EOF*/
call    0 returned 100%
branch  1 taken 0% (fallthrough)
branch  2 taken 100%
        1:  339:/*EOF*/
call    0 returned 100%
branch  1 taken 0% (fallthrough)
branch  2 taken 100%
        1:  340:/*EOF*/
call    0 returned 100%
branch  1 taken 0% (fallthrough)
branch  2 taken 100%
        1:  341:/*EOF*/
call    0 returned 100%
branch  1 taken 0% (fallthrough)
branch  2 taken 100%
        1:  342:/*EOF*/
call    0 returned 100%
branch  1 taken 0% (fallthrough)
branch  2 taken 100%
        1:  343:/*EOF*/
call    0 returned 100%
branch  1 taken 0% (fallthrough)
branch  2 taken 100%
        1:  344:/*EOF*/
call    0 returned 100%
branch  1 taken 0% (fallthrough)
branch  2 taken 100%
        1:  345:/*EOF*/
call    0 returned 100%
branch  1 taken 0% (fallthrough)
branch  2 taken 100%
        1:  346:/*EOF*/
call    0 returned 100%
branch  1 taken 0% (fallthrough)
branch  2 taken 100%
        1:  347:/*EOF*/
call    0 returned 100%
branch  1 taken 0% (fallthrough)
branch  2 taken 100%
        1:  348:/*EOF*/
call    0 returned 100%
branch  1 taken 0% (fallthrough)
branch  2 taken 100%
        -:  349:/*EOF*/
        -:  350:/*EOF*/
        1:  351:/*EOF*/
call    0 returned 100%
branch  1 taken 0% (fallthrough)
branch  2 taken 100%
        1:  352:/*EOF*/
call    0 returned 100%
branch  1 taken 0% (fallthrough)
branch  2 taken 100%
        1:  353:/*EOF*/
call    0 returned 100%
branch  1 taken 0% (fallthrough)
branch  2 taken 100%
        1:  354:/*EOF*/
call    0 returned 100%
branch  1 taken 0% (fallthrough)
branch  2 taken 100%
        1:  355:/*EOF*/
call    0 returned 100%
branch  1 taken 0% (fallthrough)
branch  2 taken 100%
        1:  356:/*EOF*/
call    0 returned 100%
branch  1 taken 0% (fallthrough)
branch  2 taken 100%
        1:  357:/*EOF*/
call    0 returned 100%
branch  1 taken 0% (fallthrough)
branch  2 taken 100%
        1:  358:/*EOF*/
call    0 returned 100%
branch  1 taken 0% (fallthrough)
branch  2 taken 100%
        1:  359:/*EOF*/
call    0 returned 100%
branch  1 taken 0% (fallthrough)
branch  2 taken 100%
        1:  360:/*EOF*/
call    0 returned 100%
branch  1 taken 0% (fallthrough)
branch  2 taken 100%
        -:  361:/*EOF*/
        -:  362:/*EOF*/
        -:  363:/*EOF*/
        -:  364:/*EOF*/
        -:  365:/*EOF*/
        -:  366:/*EOF*/
        -:  367:/*EOF*/
        -:  368:/*EOF*/
        -:  369:/*EOF*/
        -:  370:/*EOF*/
        -:  371:/*EOF*/
        -:  372:/*EOF*/
        1:  373:/*EOF*/
        1:  374:/*EOF*/
        -:  375:/*EOF*/
        -:  376:/*EOF*/
        -:  377:/*EOF*/
        -:  378:/*EOF*/
function js_FreeAtomState called 1 returned 100% blocks executed 100%
        1:  379:/*EOF*/
        -:  380:/*EOF*/
        1:  381:/*EOF*/
branch  0 taken 100% (fallthrough)
branch  1 taken 0%
        1:  382:/*EOF*/
call    0 returned 100%
        -:  383:/*EOF*/
        -:  384:/*EOF*/
        -:  385:/*EOF*/
        1:  386:/*EOF*/
        1:  387:/*EOF*/
        -:  388:/*EOF*/
        -:  389:/*EOF*/
        -:  390:/*EOF*/
        -:  391:/*EOF*/
        -:  392:/*EOF*/
        -:  393:/*EOF*/
        -:  394:/*EOF*/
function js_atom_uninterner called 0 returned 0% blocks executed 0%
    #####:  395:/*EOF*/
        -:  396:/*EOF*/
        -:  397:/*EOF*/
        -:  398:/*EOF*/
        -:  399:/*EOF*/
    #####:  400:/*EOF*/
    #####:  401:/*EOF*/
    #####:  402:/*EOF*/
branch  0 never executed
branch  1 never executed
    #####:  403:/*EOF*/
call    0 never executed
    #####:  404:/*EOF*/
branch  0 never executed
branch  1 never executed
    #####:  405:/*EOF*/
    #####:  406:/*EOF*/
        -:  407:/*EOF*/
        -:  408:/*EOF*/
        -:  409:/*EOF*/
function js_FinishAtomState called 1 returned 100% blocks executed 43%
        1:  410:/*EOF*/
        -:  411:/*EOF*/
        -:  412:/*EOF*/
        -:  413:/*EOF*/
        1:  414:/*EOF*/
branch  0 taken 100% (fallthrough)
branch  1 taken 0%
        1:  415:/*EOF*/
    #####:  416:/*EOF*/
    #####:  417:/*EOF*/
    #####:  418:/*EOF*/
call    0 never executed
        -:  419:/*EOF*/
    #####:  420:/*EOF*/
branch  0 never executed
branch  1 never executed
    #####:  421:/*EOF*/
call    0 never executed
        -:  422:/*EOF*/
        -:  423:/*EOF*/
        -:  424:/*EOF*/
        -:  425:/*EOF*/
        -:  426:/*EOF*/
        -:  427:/*EOF*/
    #####:  428:/*EOF*/
call    0 never executed
        -:  429:/*EOF*/
        -:  430:/*EOF*/
        -:  431:/*EOF*/
        -:  432:/*EOF*/
        -:  433:/*EOF*/
        -:  434:/*EOF*/
        -:  435:/*EOF*/
        -:  436:/*EOF*/
        -:  437:/*EOF*/
function js_atom_marker called 2515 returned 100% blocks executed 50%
     2515:  438:/*EOF*/
        -:  439:/*EOF*/
        -:  440:/*EOF*/
        -:  441:/*EOF*/
        -:  442:/*EOF*/
        -:  443:/*EOF*/
     2515:  444:/*EOF*/
     2515:  445:/*EOF*/
     5030:  446:/*EOF*/
branch  0 taken 100% (fallthrough)
branch  1 taken 0%
branch  2 taken 0% (fallthrough)
branch  3 taken 100%
     2515:  447:/*EOF*/
    #####:  448:/*EOF*/
    #####:  449:/*EOF*/
    #####:  450:/*EOF*/
branch  0 never executed
branch  1 never executed
branch  2 never executed
branch  3 never executed
    #####:  451:/*EOF*/
call    0 never executed
        -:  452:/*EOF*/
     2515:  453:/*EOF*/
        -:  454:/*EOF*/
        -:  455:/*EOF*/
        -:  456:/*EOF*/
function js_MarkAtomState called 2 returned 100% blocks executed 75%
        2:  457:/*EOF*/
        -:  458:/*EOF*/
        -:  459:/*EOF*/
        -:  460:/*EOF*/
        -:  461:/*EOF*/
        2:  462:/*EOF*/
branch  0 taken 0% (fallthrough)
branch  1 taken 100%
    #####:  463:/*EOF*/
        2:  464:/*EOF*/
        2:  465:/*EOF*/
        2:  466:/*EOF*/
        2:  467:/*EOF*/
call    0 returned 100%
        -:  468:/*EOF*/
        -:  469:/*EOF*/
        -:  470:/*EOF*/
function js_atom_sweeper called 2515 returned 100% blocks executed 83%
     2515:  471:/*EOF*/
        -:  472:/*EOF*/
        -:  473:/*EOF*/
        -:  474:/*EOF*/
        -:  475:/*EOF*/
     2515:  476:/*EOF*/
     2515:  477:/*EOF*/
branch  0 taken 40% (fallthrough)
branch  1 taken 60%
      994:  478:/*EOF*/
      994:  479:/*EOF*/
      994:  480:/*EOF*/
      994:  481:/*EOF*/
        -:  482:/*EOF*/
     1521:  483:/*EOF*/
branch  0 taken 0% (fallthrough)
branch  1 taken 100%
call    2 never executed
     1521:  484:/*EOF*/
     1521:  485:/*EOF*/
     1521:  486:/*EOF*/
        -:  487:/*EOF*/
        -:  488:/*EOF*/
        -:  489:/*EOF*/
function js_SweepAtomState called 2 returned 100% blocks executed 100%
        2:  490:/*EOF*/
        -:  491:/*EOF*/
        2:  492:/*EOF*/
        2:  493:/*EOF*/
branch  0 taken 100% (fallthrough)
branch  1 taken 0%
        2:  494:/*EOF*/
call    0 returned 100%
        2:  495:/*EOF*/
        -:  496:/*EOF*/
        -:  497:/*EOF*/
function js_atom_unpinner called 1521 returned 100% blocks executed 100%
     1521:  498:/*EOF*/
        -:  499:/*EOF*/
        -:  500:/*EOF*/
        -:  501:/*EOF*/
     1521:  502:/*EOF*/
     1521:  503:/*EOF*/
     1521:  504:/*EOF*/
        -:  505:/*EOF*/
        -:  506:/*EOF*/
        -:  507:/*EOF*/
function js_UnpinPinnedAtoms called 1 returned 100% blocks executed 100%
        1:  508:/*EOF*/
        -:  509:/*EOF*/
        1:  510:/*EOF*/
branch  0 taken 100% (fallthrough)
branch  1 taken 0%
        1:  511:/*EOF*/
call    0 returned 100%
        1:  512:/*EOF*/
        -:  513:/*EOF*/
        -:  514:/*EOF*/
function js_AtomizeHashedKey called 428 returned 100% blocks executed 75%
      428:  515:/*EOF*/
        -:  516:/*EOF*/
        -:  517:/*EOF*/
        -:  518:/*EOF*/
        -:  519:/*EOF*/
        -:  520:/*EOF*/
        -:  521:/*EOF*/
      428:  522:/*EOF*/
        -:  523:/*EOF*/
      428:  524:/*EOF*/
      428:  525:/*EOF*/
call    0 returned 100%
      428:  526:/*EOF*/
branch  0 taken 85% (fallthrough)
branch  1 taken 15%
      365:  527:/*EOF*/
call    0 returned 100%
      365:  528:/*EOF*/
branch  0 taken 0% (fallthrough)
branch  1 taken 100%
    #####:  529:/*EOF*/
call    0 never executed
    #####:  530:/*EOF*/
    #####:  531:/*EOF*/
        -:  532:/*EOF*/
        -:  533:/*EOF*/
        -:  534:/*EOF*/
      428:  535:/*EOF*/
      428:  536:/*EOF*/
      428:  537:/*EOF*/
        -:  538:/*EOF*/
        -:  539:/*EOF*/
      428:  540:/*EOF*/
        -:  541:/*EOF*/
        -:  542:/*EOF*/
        -:  543:/*EOF*/
function js_AtomizeObject called 363 returned 100% blocks executed 100%
      363:  544:/*EOF*/
        -:  545:/*EOF*/
        -:  546:/*EOF*/
        -:  547:/*EOF*/
        -:  548:/*EOF*/
        -:  549:/*EOF*/
      363:  550:/*EOF*/
      363:  551:/*EOF*/
      363:  552:/*EOF*/
call    0 returned 100%
        -:  553:/*EOF*/
        -:  554:/*EOF*/
        -:  555:/*EOF*/
function js_AtomizeBoolean called 0 returned 0% blocks executed 0%
    #####:  556:/*EOF*/
        -:  557:/*EOF*/
        -:  558:/*EOF*/
        -:  559:/*EOF*/
        -:  560:/*EOF*/
    #####:  561:/*EOF*/
    #####:  562:/*EOF*/
    #####:  563:/*EOF*/
call    0 never executed
        -:  564:/*EOF*/
        -:  565:/*EOF*/
        -:  566:/*EOF*/
function js_AtomizeInt called 65 returned 100% blocks executed 100%
       65:  567:/*EOF*/
        -:  568:/*EOF*/
        -:  569:/*EOF*/
        -:  570:/*EOF*/
        -:  571:/*EOF*/
       65:  572:/*EOF*/
       65:  573:/*EOF*/
       65:  574:/*EOF*/
call    0 returned 100%
        -:  575:/*EOF*/
        -:  576:/*EOF*/
        -:  577:/*EOF*/
        -:  578:/*EOF*/
        -:  579:/*EOF*/
        -:  580:/*EOF*/
        -:  581:/*EOF*/
function js_AtomizeDouble called 0 returned 0% blocks executed 0%
    #####:  582:/*EOF*/
        -:  583:/*EOF*/
        -:  584:/*EOF*/
        -:  585:/*EOF*/
        -:  586:/*EOF*/
        -:  587:/*EOF*/
        -:  588:/*EOF*/
        -:  589:/*EOF*/
        -:  590:/*EOF*/
        -:  591:/*EOF*/
        -:  592:/*EOF*/
    #####:  593:/*EOF*/
    #####:  594:/*EOF*/
    #####:  595:/*EOF*/
    #####:  596:/*EOF*/
    #####:  597:/*EOF*/
        -:  598:/*EOF*/
    #####:  599:/*EOF*/
    #####:  600:/*EOF*/
call    0 never executed
    #####:  601:/*EOF*/
branch  0 never executed
branch  1 never executed
        -:  602:/*EOF*/
        -:  603:/*EOF*/
        -:  604:/*EOF*/
        -:  605:/*EOF*/
    #####:  606:/*EOF*/
call    0 never executed
branch  1 never executed
branch  2 never executed
    #####:  607:/*EOF*/
        -:  608:/*EOF*/
        -:  609:/*EOF*/
        -:  610:/*EOF*/
        -:  611:/*EOF*/
        -:  612:/*EOF*/
        -:  613:/*EOF*/
        -:  614:/*EOF*/
        -:  615:/*EOF*/
        -:  616:/*EOF*/
        -:  617:/*EOF*/
    #####:  618:/*EOF*/
call    0 never executed
    #####:  619:/*EOF*/
branch  0 never executed
branch  1 never executed
    #####:  620:/*EOF*/
call    0 never executed
    #####:  621:/*EOF*/
    #####:  622:/*EOF*/
        -:  623:/*EOF*/
        -:  624:/*EOF*/
        -:  625:/*EOF*/
    #####:  626:/*EOF*/
    #####:  627:/*EOF*/
    #####:  628:/*EOF*/
        -:  629:/*EOF*/
        -:  630:/*EOF*/
    #####:  631:/*EOF*/
        -:  632:/*EOF*/
        -:  633:/*EOF*/
        -:  634:/*EOF*/
        -:  635:/*EOF*/
        -:  636:/*EOF*/
        -:  637:/*EOF*/
        -:  638:/*EOF*/
        -:  639:/*EOF*/
        -:  640:/*EOF*/
function js_AtomizeString called 10440 returned 100% blocks executed 75%
    10440:  641:/*EOF*/
        -:  642:/*EOF*/
        -:  643:/*EOF*/
        -:  644:/*EOF*/
        -:  645:/*EOF*/
        -:  646:/*EOF*/
        -:  647:/*EOF*/
        -:  648:/*EOF*/
        -:  649:/*EOF*/
    10440:  650:/*EOF*/
call    0 returned 100%
    10440:  651:/*EOF*/
branch  0 taken 29% (fallthrough)
branch  1 taken 71%
     3014:  652:/*EOF*/
    10440:  653:/*EOF*/
    10440:  654:/*EOF*/
        -:  655:/*EOF*/
    10440:  656:/*EOF*/
    10440:  657:/*EOF*/
call    0 returned 100%
    10440:  658:/*EOF*/
branch  0 taken 11% (fallthrough)
branch  1 taken 89%
        -:  659:/*EOF*/
        -:  660:/*EOF*/
        -:  661:/*EOF*/
        -:  662:/*EOF*/
        -:  663:/*EOF*/
     1156:  664:/*EOF*/
branch  0 taken 85% (fallthrough)
branch  1 taken 15%
     1956:  665:/*EOF*/
branch  0 taken 0% (fallthrough)
branch  1 taken 100%
    #####:  666:/*EOF*/
call    0 never executed
      978:  667:/*EOF*/
call    0 returned 100%
      978:  668:/*EOF*/
branch  0 taken 0% (fallthrough)
branch  1 taken 100%
    #####:  669:/*EOF*/
      978:  670:/*EOF*/
        -:  671:/*EOF*/
      178:  672:/*EOF*/
call    0 returned 100%
branch  1 taken 0% (fallthrough)
branch  2 taken 100%
    #####:  673:/*EOF*/
        -:  674:/*EOF*/
        -:  675:/*EOF*/
        -:  676:/*EOF*/
        -:  677:/*EOF*/
        -:  678:/*EOF*/
        -:  679:/*EOF*/
        -:  680:/*EOF*/
        -:  681:/*EOF*/
        -:  682:/*EOF*/
        -:  683:/*EOF*/
        -:  684:/*EOF*/
        -:  685:/*EOF*/
        -:  686:/*EOF*/
        -:  687:/*EOF*/
        -:  688:/*EOF*/
     1156:  689:/*EOF*/
call    0 returned 100%
     1156:  690:/*EOF*/
branch  0 taken 0% (fallthrough)
branch  1 taken 100%
    #####:  691:/*EOF*/
call    0 never executed
    #####:  692:/*EOF*/
    #####:  693:/*EOF*/
        -:  694:/*EOF*/
        -:  695:/*EOF*/
        -:  696:/*EOF*/
    10440:  697:/*EOF*/
    10440:  698:/*EOF*/
    10440:  699:/*EOF*/
        -:  700:/*EOF*/
        -:  701:/*EOF*/
    10440:  702:/*EOF*/
        -:  703:/*EOF*/
        -:  704:/*EOF*/
        -:  705:/*EOF*/
function js_Atomize called 2035 returned 100% blocks executed 50%
     2035:  706:/*EOF*/
        -:  707:/*EOF*/
        -:  708:/*EOF*/
        -:  709:/*EOF*/
        -:  710:/*EOF*/
        -:  711:/*EOF*/
        -:  712:/*EOF*/
        -:  713:/*EOF*/
        -:  714:/*EOF*/
        -:  715:/*EOF*/
        -:  716:/*EOF*/
        -:  717:/*EOF*/
        -:  718:/*EOF*/
        -:  719:/*EOF*/
        -:  720:/*EOF*/
        -:  721:/*EOF*/
     2035:  722:/*EOF*/
        -:  723:/*EOF*/
     2035:  724:/*EOF*/
branch  0 taken 100% (fallthrough)
branch  1 taken 0%
     2035:  725:/*EOF*/
call    0 returned 100%
     2035:  726:/*EOF*/
     2035:  727:/*EOF*/
        -:  728:/*EOF*/
    #####:  729:/*EOF*/
    #####:  730:/*EOF*/
call    0 never executed
    #####:  731:/*EOF*/
branch  0 never executed
branch  1 never executed
    #####:  732:/*EOF*/
    #####:  733:/*EOF*/
        -:  734:/*EOF*/
        -:  735:/*EOF*/
     2035:  736:/*EOF*/
        -:  737:/*EOF*/
     2035:  738:/*EOF*/
     2035:  739:/*EOF*/
     2035:  740:/*EOF*/
call    0 returned 100%
     2035:  741:/*EOF*/
branch  0 taken 0% (fallthrough)
branch  1 taken 100%
branch  2 never executed
branch  3 never executed
branch  4 never executed
branch  5 never executed
    #####:  742:/*EOF*/
call    0 never executed
     2035:  743:/*EOF*/
        -:  744:/*EOF*/
        -:  745:/*EOF*/
        -:  746:/*EOF*/
function js_AtomizeChars called 5221 returned 100% blocks executed 100%
     5221:  747:/*EOF*/
        -:  748:/*EOF*/
        -:  749:/*EOF*/
        -:  750:/*EOF*/
        -:  751:/*EOF*/
     5221:  752:/*EOF*/
     5221:  753:/*EOF*/
     5221:  754:/*EOF*/
     5221:  755:/*EOF*/
call    0 returned 100%
        -:  756:/*EOF*/
        -:  757:/*EOF*/
        -:  758:/*EOF*/
function js_AtomizeValue called 0 returned 0% blocks executed 0%
    #####:  759:/*EOF*/
        -:  760:/*EOF*/
    #####:  761:/*EOF*/
branch  0 never executed
branch  1 never executed
    #####:  762:/*EOF*/
call    0 never executed
    #####:  763:/*EOF*/
branch  0 never executed
branch  1 never executed
branch  2 never executed
branch  3 never executed
    #####:  764:/*EOF*/
call    0 never executed
    #####:  765:/*EOF*/
branch  0 never executed
branch  1 never executed
    #####:  766:/*EOF*/
call    0 never executed
    #####:  767:/*EOF*/
branch  0 never executed
branch  1 never executed
    #####:  768:/*EOF*/
call    0 never executed
    #####:  769:/*EOF*/
branch  0 never executed
branch  1 never executed
    #####:  770:/*EOF*/
call    0 never executed
    #####:  771:/*EOF*/
call    0 never executed
        -:  772:/*EOF*/
        -:  773:/*EOF*/
        -:  774:/*EOF*/
function js_ValueToStringAtom called 56 returned 100% blocks executed 83%
       56:  775:/*EOF*/
        -:  776:/*EOF*/
        -:  777:/*EOF*/
        -:  778:/*EOF*/
       56:  779:/*EOF*/
call    0 returned 100%
       56:  780:/*EOF*/
branch  0 taken 0% (fallthrough)
branch  1 taken 100%
    #####:  781:/*EOF*/
       56:  782:/*EOF*/
call    0 returned 100%
        -:  783:/*EOF*/
        -:  784:/*EOF*/
        -:  785:/*EOF*/
function js_hash_atom_ptr called 0 returned 0% blocks executed 0%
    #####:  786:/*EOF*/
        -:  787:/*EOF*/
    #####:  788:/*EOF*/
    #####:  789:/*EOF*/
        -:  790:/*EOF*/
        -:  791:/*EOF*/
        -:  792:/*EOF*/
function js_alloc_temp_space called 132 returned 100% blocks executed 88%
      132:  793:/*EOF*/
        -:  794:/*EOF*/
      132:  795:/*EOF*/
        -:  796:/*EOF*/
        -:  797:/*EOF*/
      132:  798:/*EOF*/
branch  0 taken 100% (fallthrough)
branch  1 taken 0%
branch  2 taken 22% (fallthrough)
branch  3 taken 78%
call    4 returned 100%
      132:  799:/*EOF*/
branch  0 taken 0% (fallthrough)
branch  1 taken 100%
    #####:  800:/*EOF*/
call    0 never executed
      132:  801:/*EOF*/
        -:  802:/*EOF*/
        -:  803:/*EOF*/
        -:  804:/*EOF*/
function js_free_temp_space called 34 returned 100% blocks executed 100%
       34:  805:/*EOF*/
        -:  806:/*EOF*/
       34:  807:/*EOF*/
        -:  808:/*EOF*/
        -:  809:/*EOF*/
function js_alloc_temp_entry called 2839 returned 100% blocks executed 78%
     2839:  810:/*EOF*/
        -:  811:/*EOF*/
     2839:  812:/*EOF*/
        -:  813:/*EOF*/
        -:  814:/*EOF*/
     2839:  815:/*EOF*/
branch  0 taken 3% (fallthrough)
branch  1 taken 97%
call    2 returned 100%
     2839:  816:/*EOF*/
branch  0 taken 0% (fallthrough)
branch  1 taken 100%
    #####:  817:/*EOF*/
call    0 never executed
    #####:  818:/*EOF*/
        -:  819:/*EOF*/
     2839:  820:/*EOF*/
        -:  821:/*EOF*/
        -:  822:/*EOF*/
        -:  823:/*EOF*/
function js_free_temp_entry called 0 returned 0% blocks executed 0%
    #####:  824:/*EOF*/
        -:  825:/*EOF*/
    #####:  826:/*EOF*/
        -:  827:/*EOF*/
        -:  828:/*EOF*/
        -:  829:/*EOF*/
        -:  830:/*EOF*/
        -:  831:/*EOF*/
        -:  832:/*EOF*/
        -:  833:/*EOF*/
function js_IndexAtom called 3518 returned 100% blocks executed 85%
     3518:  834:/*EOF*/
        -:  835:/*EOF*/
        -:  836:/*EOF*/
        -:  837:/*EOF*/
        -:  838:/*EOF*/
     3518:  839:/*EOF*/
branch  0 taken 36% (fallthrough)
branch  1 taken 64%
call    2 returned 100%
branch  3 taken 4% (fallthrough)
branch  4 taken 96%
branch  5 taken 79%
branch  6 taken 21% (fallthrough)
     3518:  840:/*EOF*/
branch  0 taken 81% (fallthrough)
branch  1 taken 19%
     2839:  841:/*EOF*/
branch  0 taken 67% (fallthrough)
branch  1 taken 33%
        -:  842:/*EOF*/
     1903:  843:/*EOF*/
branch  0 taken 0% (fallthrough)
branch  1 taken 100%
call    2 never executed
     1903:  844:/*EOF*/
call    0 returned 100%
     1903:  845:/*EOF*/
branch  0 taken 0% (fallthrough)
branch  1 taken 100%
    #####:  846:/*EOF*/
     1903:  847:/*EOF*/
     1903:  848:/*EOF*/
     1903:  849:/*EOF*/
        -:  850:/*EOF*/
        -:  851:/*EOF*/
      936:  852:/*EOF*/
branch  0 taken 5% (fallthrough)
branch  1 taken 95%
        -:  853:/*EOF*/
       49:  854:/*EOF*/
branch  0 taken 0% (fallthrough)
branch  1 taken 100%
call    2 never executed
       49:  855:/*EOF*/
call    0 returned 100%
        -:  856:/*EOF*/
        -:  857:/*EOF*/
       49:  858:/*EOF*/
branch  0 taken 0% (fallthrough)
branch  1 taken 100%
    #####:  859:/*EOF*/
        -:  860:/*EOF*/
        -:  861:/*EOF*/
        -:  862:/*EOF*/
        -:  863:/*EOF*/
        -:  864:/*EOF*/
       49:  865:/*EOF*/
        -:  866:/*EOF*/
        -:  867:/*EOF*/
      539:  868:/*EOF*/
branch  0 taken 91%
branch  1 taken 9% (fallthrough)
      490:  869:/*EOF*/
      490:  870:/*EOF*/
      490:  871:/*EOF*/
call    0 returned 100%
        -:  872:/*EOF*/
      490:  873:/*EOF*/
      490:  874:/*EOF*/
        -:  875:/*EOF*/
       49:  876:/*EOF*/
        -:  877:/*EOF*/
        -:  878:/*EOF*/
       49:  879:/*EOF*/
call    0 returned 100%
        -:  880:/*EOF*/
        -:  881:/*EOF*/
        -:  882:/*EOF*/
      936:  883:/*EOF*/
call    0 returned 100%
        -:  884:/*EOF*/
      936:  885:/*EOF*/
branch  0 taken 0% (fallthrough)
branch  1 taken 100%
    #####:  886:/*EOF*/
        -:  887:/*EOF*/
        -:  888:/*EOF*/
     2839:  889:/*EOF*/
        -:  890:/*EOF*/
     3518:  891:/*EOF*/
        -:  892:/*EOF*/
        -:  893:/*EOF*/
        -:  894:/*EOF*/
function js_GetAtom called 1581 returned 100% blocks executed 58%
     1581:  895:/*EOF*/
        -:  896:/*EOF*/
        -:  897:/*EOF*/
        -:  898:/*EOF*/
        -:  899:/*EOF*/
     1581:  900:/*EOF*/
branch  0 taken 100% (fallthrough)
branch  1 taken 0%
branch  2 taken 0% (fallthrough)
branch  3 taken 100%
call    4 never executed
     1581:  901:/*EOF*/
branch  0 taken 100% (fallthrough)
branch  1 taken 0%
branch  2 taken 0% (fallthrough)
branch  3 taken 100%
        -:  902:/*EOF*/
    #####:  903:/*EOF*/
call    0 never executed
    #####:  904:/*EOF*/
call    0 never executed
        -:  905:/*EOF*/
    #####:  906:/*EOF*/
        -:  907:/*EOF*/
     1581:  908:/*EOF*/
     1581:  909:/*EOF*/
branch  0 taken 0% (fallthrough)
branch  1 taken 100%
call    2 never executed
     1581:  910:/*EOF*/
        -:  911:/*EOF*/
        -:  912:/*EOF*/
        -:  913:/*EOF*/
function js_map_atom called 1328 returned 100% blocks executed 100%
     1328:  914:/*EOF*/
        -:  915:/*EOF*/
     1328:  916:/*EOF*/
     1328:  917:/*EOF*/
        -:  918:/*EOF*/
     1328:  919:/*EOF*/
     1328:  920:/*EOF*/
        -:  921:/*EOF*/
        -:  922:/*EOF*/
        -:  923:/*EOF*/
        -:  924:/*EOF*/
        -:  925:/*EOF*/
        -:  926:/*EOF*/
        -:  927:/*EOF*/
        -:  928:/*EOF*/
function js_InitAtomMap called 326 returned 100% blocks executed 79%
      326:  929:/*EOF*/
        -:  930:/*EOF*/
        -:  931:/*EOF*/
        -:  932:/*EOF*/
        -:  933:/*EOF*/
        -:  934:/*EOF*/
        -:  935:/*EOF*/
      326:  936:/*EOF*/
        -:  937:/*EOF*/
      326:  938:/*EOF*/
      326:  939:/*EOF*/
branch  0 taken 17% (fallthrough)
branch  1 taken 83%
branch  2 taken 16% (fallthrough)
branch  3 taken 84%
        9:  940:/*EOF*/
        9:  941:/*EOF*/
        9:  942:/*EOF*/
        -:  943:/*EOF*/
        -:  944:/*EOF*/
      317:  945:/*EOF*/
      317:  946:/*EOF*/
branch  0 taken 0% (fallthrough)
branch  1 taken 100%
    #####:  947:/*EOF*/
call    0 never executed
        -:  948:/*EOF*/
    #####:  949:/*EOF*/
        -:  950:/*EOF*/
      317:  951:/*EOF*/
call    0 returned 100%
      317:  952:/*EOF*/
branch  0 taken 0% (fallthrough)
branch  1 taken 100%
    #####:  953:/*EOF*/
        -:  954:/*EOF*/
      317:  955:/*EOF*/
branch  0 taken 15% (fallthrough)
branch  1 taken 85%
        -:  956:/*EOF*/
       48:  957:/*EOF*/
        -:  958:/*EOF*/
       48:  959:/*EOF*/
call    0 returned 100%
        -:  960:/*EOF*/
        -:  961:/*EOF*/
     1324:  962:/*EOF*/
     1324:  963:/*EOF*/
branch  0 taken 80%
branch  1 taken 20% (fallthrough)
        -:  964:/*EOF*/
      317:  965:/*EOF*/
        -:  966:/*EOF*/
      317:  967:/*EOF*/
      317:  968:/*EOF*/
      317:  969:/*EOF*/
        -:  970:/*EOF*/
        -:  971:/*EOF*/
        -:  972:/*EOF*/
function js_FreeAtomMap called 327 returned 100% blocks executed 100%
      327:  973:/*EOF*/
        -:  974:/*EOF*/
      327:  975:/*EOF*/
branch  0 taken 97% (fallthrough)
branch  1 taken 3%
      317:  976:/*EOF*/
call    0 returned 100%
      317:  977:/*EOF*/
        -:  978:/*EOF*/
      327:  979:/*EOF*/
      327:  980:/*EOF*/
