        -:    0:Source:jslog2.c
        -:    0:Graph:jslog2.gcno
        -:    0:Data:jslog2.gcda
        -:    0:Runs:1
        -:    0:Programs:1
        -:    1:/*EOF*/
        -:    2:/*EOF*/
        -:    3:/*EOF*/
        -:    4:/*EOF*/
        -:    5:/*EOF*/
        -:    6:/*EOF*/
        -:    7:/*EOF*/
        -:    8:/*EOF*/
        -:    9:/*EOF*/
        -:   10:/*EOF*/
        -:   11:/*EOF*/
        -:   12:/*EOF*/
        -:   13:/*EOF*/
        -:   14:/*EOF*/
        -:   15:/*EOF*/
        -:   16:/*EOF*/
        -:   17:/*EOF*/
        -:   18:/*EOF*/
        -:   19:/*EOF*/
        -:   20:/*EOF*/
        -:   21:/*EOF*/
        -:   22:/*EOF*/
        -:   23:/*EOF*/
        -:   24:/*EOF*/
        -:   25:/*EOF*/
        -:   26:/*EOF*/
        -:   27:/*EOF*/
        -:   28:/*EOF*/
        -:   29:/*EOF*/
        -:   30:/*EOF*/
        -:   31:/*EOF*/
        -:   32:/*EOF*/
        -:   33:/*EOF*/
        -:   34:/*EOF*/
        -:   35:/*EOF*/
        -:   36:/*EOF*/
        -:   37:/*EOF*/
        -:   38:/*EOF*/
        -:   39:/*EOF*/
        -:   40:/*EOF*/
        -:   41:/*EOF*/
        -:   42:/*EOF*/
        -:   43:/*EOF*/
        -:   44:/*EOF*/
function JS_CeilingLog2 called 154 returned 100% blocks executed 92%
      154:   45:/*EOF*/
        -:   46:/*EOF*/
      154:   47:/*EOF*/
        -:   48:/*EOF*/
      154:   49:/*EOF*/
branch  0 taken 21% (fallthrough)
branch  1 taken 79%
       32:   50:/*EOF*/
      154:   51:/*EOF*/
branch  0 taken 0% (fallthrough)
branch  1 taken 100%
    #####:   52:/*EOF*/
      154:   53:/*EOF*/
branch  0 taken 16% (fallthrough)
branch  1 taken 84%
       25:   54:/*EOF*/
      154:   55:/*EOF*/
branch  0 taken 5% (fallthrough)
branch  1 taken 95%
        7:   56:/*EOF*/
      154:   57:/*EOF*/
branch  0 taken 54% (fallthrough)
branch  1 taken 46%
       83:   58:/*EOF*/
      154:   59:/*EOF*/
branch  0 taken 8% (fallthrough)
branch  1 taken 92%
       13:   60:/*EOF*/
      154:   61:/*EOF*/
        -:   62:/*EOF*/
        -:   63:/*EOF*/
        -:   64:/*EOF*/
        -:   65:/*EOF*/
        -:   66:/*EOF*/
        -:   67:/*EOF*/
function JS_FloorLog2 called 0 returned 0% blocks executed 0%
    #####:   68:/*EOF*/
        -:   69:/*EOF*/
    #####:   70:/*EOF*/
        -:   71:/*EOF*/
    #####:   72:/*EOF*/
branch  0 never executed
branch  1 never executed
    #####:   73:/*EOF*/
    #####:   74:/*EOF*/
branch  0 never executed
branch  1 never executed
    #####:   75:/*EOF*/
    #####:   76:/*EOF*/
branch  0 never executed
branch  1 never executed
    #####:   77:/*EOF*/
    #####:   78:/*EOF*/
branch  0 never executed
branch  1 never executed
    #####:   79:/*EOF*/
    #####:   80:/*EOF*/
branch  0 never executed
branch  1 never executed
    #####:   81:/*EOF*/
    #####:   82:/*EOF*/
